<svg xmlns="http://www.w3.org/2000/svg" xmlns:xlink="http://www.w3.org/1999/xlink" width="180" height="134">
  <defs>
    <path id="a" d="M0 133.597734h180V0H0z"/>
    <path id="d" d="M54.6472861 80.2501955H17.6113938c-2.6153541 0-4.7360907-2.1204816-4.7360907-4.7360907V52.3094023c0-2.6158641 2.1207366-4.7360907 4.7360907-4.7360907h37.0358923c2.615864 0 4.7360907 2.1202266 4.7360907 4.7360907v23.2047025c0 2.6156091-2.1202267 4.7360907-4.7360907 4.7360907"/>
    <filter id="c" width="151.6%" height="173.4%" x="-25.8%" y="-36.7%" filterUnits="objectBoundingBox">
      <feOffset in="SourceAlpha" result="shadowOffsetOuter1"/>
      <feGaussianBlur in="shadowOffsetOuter1" result="shadowBlurOuter1" stdDeviation="4"/>
      <feColorMatrix in="shadowBlurOuter1" values="0 0 0 0 0 0 0 0 0 0 0 0 0 0 0 0 0 0 0.055395154 0"/>
    </filter>
    <path id="f" d="M108.517768 80.2501955H71.4818754c-2.6153542 0-4.7360907-2.1204816-4.7360907-4.7360907V52.3094023c0-2.6158641 2.1207365-4.7360907 4.7360907-4.7360907h37.0358926c2.615864 0 4.736345 2.1202266 4.736345 4.7360907v23.2047025c0 2.6156091-2.120481 4.7360907-4.736345 4.7360907"/>
    <filter id="e" width="151.6%" height="173.4%" x="-25.8%" y="-36.7%" filterUnits="objectBoundingBox">
      <feOffset in="SourceAlpha" result="shadowOffsetOuter1"/>
      <feGaussianBlur in="shadowOffsetOuter1" result="shadowBlurOuter1" stdDeviation="4"/>
      <feColorMatrix in="shadowBlurOuter1" values="0 0 0 0 0 0 0 0 0 0 0 0 0 0 0 0 0 0 0.055395154 0"/>
    </filter>
    <path id="h" d="M161.976442 80.2501955H124.94055c-2.615609 0-4.736091-2.1204816-4.736091-4.7360907V52.3094023c0-2.6158641 2.120482-4.7360907 4.736091-4.7360907h37.035892c2.615864 0 4.736091 2.1202266 4.736091 4.7360907v23.2047025c0 2.6156091-2.120227 4.7360907-4.736091 4.7360907"/>
    <filter id="g" width="151.6%" height="173.4%" x="-25.8%" y="-36.7%" filterUnits="objectBoundingBox">
      <feOffset in="SourceAlpha" result="shadowOffsetOuter1"/>
      <feGaussianBlur in="shadowOffsetOuter1" result="shadowBlurOuter1" stdDeviation="4"/>
      <feColorMatrix in="shadowBlurOuter1" values="0 0 0 0 0 0 0 0 0 0 0 0 0 0 0 0 0 0 0.055395154 0"/>
    </filter>
    <path id="j" d="M54.6472861 120.648493H17.6113938c-2.6153541 0-4.7360907-2.120482-4.7360907-4.736091V92.7076997c0-2.615864 2.1207366-4.7360906 4.7360907-4.7360906h37.0358923c2.615864 0 4.7360907 2.1202266 4.7360907 4.7360906v23.2047023c0 2.615609-2.1202267 4.736091-4.7360907 4.736091"/>
    <filter id="i" width="151.6%" height="173.4%" x="-25.8%" y="-36.7%" filterUnits="objectBoundingBox">
      <feOffset in="SourceAlpha" result="shadowOffsetOuter1"/>
      <feGaussianBlur in="shadowOffsetOuter1" result="shadowBlurOuter1" stdDeviation="4"/>
      <feColorMatrix in="shadowBlurOuter1" values="0 0 0 0 0 0 0 0 0 0 0 0 0 0 0 0 0 0 0.055395154 0"/>
    </filter>
    <path id="l" d="M161.976442 120.648493H124.94055c-2.615609 0-4.736091-2.120482-4.736091-4.736091V92.7076997c0-2.615864 2.120482-4.7360906 4.736091-4.7360906h37.035892c2.615864 0 4.736091 2.1202266 4.736091 4.7360906v23.2047023c0 2.615609-2.120227 4.736091-4.736091 4.736091"/>
    <filter id="k" width="151.6%" height="173.4%" x="-25.8%" y="-36.7%" filterUnits="objectBoundingBox">
      <feOffset in="SourceAlpha" result="shadowOffsetOuter1"/>
      <feGaussianBlur in="shadowOffsetOuter1" result="shadowBlurOuter1" stdDeviation="4"/>
      <feColorMatrix in="shadowBlurOuter1" values="0 0 0 0 0 0 0 0 0 0 0 0 0 0 0 0 0 0 0.055395154 0"/>
    </filter>
  </defs>
  <g fill="none" fill-rule="evenodd">
    <path fill="#F5F5F5" d="M168.370547 130.283363H11.6295552c-4.59229458 0-8.3151841-3.72289-8.3151841-8.31493V11.6294533c0-4.59229466 3.72288952-8.31492922 8.3151841-8.31492922H168.370547c4.592294 0 8.314929 3.72263456 8.314929 8.31492922V121.968433c0 4.59204-3.722635 8.31493-8.314929 8.31493"/>
    <mask id="b" fill="#fff">
      <use xlink:href="#a"/>
    </mask>
    <path fill="#4D93B8" d="M3.05949008 30.3802266H178.300198V18.7337677H3.05949008z" mask="url(#b)"/>
    <path fill="#CECECE" d="M176.685527 17.5921445H3.3144221v-5.9626912c0-4.59229466 3.72288951-8.31492922 8.3149292-8.31492922H168.370598c4.592039 0 8.314929 3.72263456 8.314929 8.31492922v5.9626912z" mask="url(#b)"/>
    <path fill="#EF1414" d="M15.8073399 10.3258555c0 1.6192352-1.3125212 2.9320114-2.9320113 2.9320114-1.6194901 0-2.93201132-1.3127762-2.93201132-2.9320114 0-1.61949006 1.31252122-2.93201131 2.93201132-2.93201131s2.9320113 1.31252125 2.9320113 2.93201131" mask="url(#b)"/>
    <path fill="#F9CB0B" d="M24.6033739 10.3258555c0 1.6192352-1.3125212 2.9320114-2.9320113 2.9320114-1.6194901 0-2.9320113-1.3127762-2.9320113-2.9320114 0-1.61949006 1.3125212-2.93201131 2.9320113-2.93201131 1.6194901 0 2.9320113 1.31252125 2.9320113 2.93201131" mask="url(#b)"/>
    <path fill="#19F74D" d="M34.0368017 10.3258555c0 1.6192352-1.3125212 2.9320114-2.9320113 2.9320114-1.6194901 0-2.9320114-1.3127762-2.9320114-2.9320114 0-1.61949006 1.3125213-2.93201131 2.9320114-2.93201131s2.9320113 1.31252125 2.9320113 2.93201131" mask="url(#b)"/>
    <path fill="#000" d="M168.370547.000051H11.6295552c-6.41269118 0-11.62963169 5.2169405-11.62963169 11.6293768V121.968408c0 6.412436 5.21694051 11.629377 11.62963169 11.629377H168.370547c6.412436 0 11.629377-5.216941 11.629377-11.629377V11.6294278c0-6.4124363-5.216941-11.6293768-11.629377-11.6293768m0 3.31444758c4.592294 0 8.314929 3.72288952 8.314929 8.31492922V121.968408c0 4.59204-3.722635 8.314929-8.314929 8.314929H11.6295552c-4.59229458 0-8.3151841-3.722889-8.3151841-8.314929V11.6294278c0-4.5920397 3.72288952-8.31492922 8.3151841-8.31492922H168.370547" mask="url(#b)"/>
    <path fill="#000" d="M3.31444759 18.611898H176.685552v-2.03966H3.31444759z" mask="url(#b)"/>
    <g mask="url(#b)">
      <use fill="#000" filter="url(#c)" xlink:href="#d"/>
      <use fill="#FFF" xlink:href="#d"/>
    </g>
    <g mask="url(#b)">
      <g transform="translate(28 56)">
        <circle cx="8" cy="8" r="8" fill="#9B9B9B"/>
        <path stroke="#FFF" stroke-width="1.5" d="M8 12.3076923c1.07083834 0 3.0769231-3.41456733 3.0769231-5.26495726S9.69933769 3.69230769 8 3.69230769c-1.69933769 0-3.07692308 1.16239316-3.07692308 3.35042735 0 2.18803419 2.00608474 5.26495726 3.07692308 5.26495726z"/>
        <circle cx="8" cy="6.76923077" r="1.23076923" stroke="#FFF" stroke-width="1.5"/>
      </g>
    </g>
    <g mask="url(#b)">
      <use fill="#000" filter="url(#e)" xlink:href="#f"/>
      <use fill="#FFF" xlink:href="#f"/>
    </g>
    <g mask="url(#b)">
      <use fill="#000" filter="url(#g)" xlink:href="#h"/>
      <use fill="#FFF" xlink:href="#h"/>
    </g>
    <g mask="url(#b)">
      <use fill="#000" filter="url(#i)" xlink:href="#j"/>
      <use fill="#FFF" xlink:href="#j"/>
    </g>
    <g mask="url(#b)">
      <g transform="translate(28 96)">
        <circle cx="8" cy="8" r="8" fill="#4D95BA"/>
        <circle cx="8" cy="8" r="4.30769231" stroke="#FFF" stroke-width="1.5"/>
        <path stroke="#FFF" stroke-linecap="round" stroke-linejoin="round" stroke-width="1.5" d="M8 6.15384615v2.46153847H6.15384615"/>
      </g>
    </g>
    <g mask="url(#b)">
      <use fill="#000" filter="url(#k)" xlink:href="#l"/>
      <use fill="#FFF" xlink:href="#l"/>
    </g>
    <g mask="url(#b)">
      <g transform="translate(135 96)">
        <circle cx="8" cy="8" r="8" fill="#F39A1B"/>
        <circle cx="8.61538462" cy="7.38461538" r="2.46153846" stroke="#FFF" stroke-width="2"/>
        <path stroke="#FFF" stroke-linecap="round" stroke-width="2" d="M6.46153846 9.53846154L4.92307692 11.0769231"/>
      </g>
    </g>
    <g mask="url(#b)">
      <g transform="translate(81 56)">
        <circle cx="8" cy="8" r="8" fill="#65C100"/>
        <path stroke="#FFF" stroke-linecap="round" stroke-linejoin="round" stroke-width="2" d="M4.92307692 7.61253561l2.25641026 2.43874649 3.89743592-3.89743595"/>
      </g>
    </g>
    <g mask="url(#b)">
      <g transform="translate(130 56)">
        <circle cx="8" cy="8" r="8" fill="#65C100"/>
        <path stroke="#FFF" stroke-linecap="round" stroke-linejoin="round" stroke-width="2" d="M4.92307692 7.61253561l2.25641026 2.43874649 3.89743592-3.89743595"/>
      </g>
    </g>
    <g mask="url(#b)">
      <g transform="translate(141 56)">
        <circle cx="8" cy="8" r="8" fill="#F39A1B"/>
        <circle cx="8.61538462" cy="7.38461538" r="2.46153846" stroke="#FFF" stroke-width="2"/>
        <path stroke="#FFF" stroke-linecap="round" stroke-width="2" d="M6.46153846 9.53846154L4.92307692 11.0769231"/>
      </g>
    </g>
    <path fill="#000" d="M44.0070425 40.6894334H14.6124816c-.9594051 0-1.7370255-.7778753-1.7370255-1.7370255 0-.9594051.7776204-1.7372804 1.7370255-1.7372804h29.3945609c.95966 0 1.7370255.7778753 1.7370255 1.7372804 0 .9591502-.7773655 1.7370255-1.7370255 1.7370255m53.8707365 0H68.4829632c-.9594051 0-1.7370255-.7778753-1.7370255-1.7370255 0-.9594051.7776204-1.7372804 1.7370255-1.7372804H97.877779c.9594051 0 1.7367706.7778753 1.7367706 1.7372804 0 .9591502-.7773655 1.7370255-1.7367706 1.7370255m53.458419 0h-29.394816c-.959405 0-1.73677-.7778753-1.73677-1.7370255 0-.9594051.777365-1.7372804 1.73677-1.7372804h29.394816c.959405 0 1.737026.7778753 1.737026 1.7372804 0 .9591502-.777621 1.7370255-1.737026 1.7370255" mask="url(#b)"/>
  </g>
</svg>
