<svg xmlns="http://www.w3.org/2000/svg" xmlns:xlink="http://www.w3.org/1999/xlink" width="321" height="140">
  <defs>
    <path id="a" d="M.21018241.1610228H26.2529186v32.2168274H.21018241z"/>
  </defs>
  <g fill="none" fill-rule="evenodd">
    <path fill="#5095B7" d="M20.9996352 121.294541c0 6.47785-4.0435831 10.216808-10.5214332 10.216808-4.30488604 0-7.78254076-1.782606-10.4781108-4.868991l3.56521173-5.174071c2.17387622 2.260977 4.60859935 3.391009 6.39074919 3.391009 2.04345278 0 3.26149838-1.260456 3.26149838-3.738957v-14.17329H2.78276221v-6.260782H20.9996352v20.608274zm18.8694006 1.91271v-2.086775H35.130013c-2.2609772 0-3.3910097.782996-3.3910097 2.521824 0 1.695505 1.2171335 2.782671 3.3039088 2.782671 2.3476221 0 4.3477524-1.304691 4.8261237-3.21772m7.3908144-7.347492v15.303778h-7.3474919v-2.69557c-1.521759 1.999675-3.9998046 3.043518-7.1737459 3.043518-4.9998697 0-8.0429316-3.043518-8.0429316-7.347492 0-4.434853 3.1739413-7.043322 8.9996742-7.086644h6.1736808v-.347948c0-2.3043-1.5217589-3.695636-4.5652768-3.695636-1.9568079 0-4.5214984.69544-6.999544 1.956352l-2.1300977-4.956547c3.6518566-1.695049 6.9562215-2.651335 10.868925-2.651335 6.4345277 0 10.1730294 3.173485 10.2168079 8.477524m26.0001889-3.129935l-5.3906841 3.26013c-1.0871661-1.521303-2.69557-2.433811-4.7390228-2.433811-2.9135504 0-4.9127687 2.390489-4.9127687 5.911922 0 3.608534 1.9992183 5.956613 4.9127687 5.956613 2.1300978 0 3.7822802-.869642 4.7818893-2.652248l5.478241 3.217264c-1.9125732 3.434788-5.6953094 5.434918-10.6518566 5.434918-7.2170684 0-12.0860587-4.782345-12.0860587-11.912768 0-7.217069 4.9123127-12.042737 12.1731596-12.042737 4.6519219 0 8.3913355 1.912574 10.4343323 5.260717m11.522228 12.042827v6.391206h-7.5212378V98.9036612h7.5212378v17.0430618l7.7387622-8.217133h8.5213027l-8.6084037 8.999674 8.8697067 14.434593h-8.9130291l-5.0869707-9.043453z"/>
    <path fill="#FFF" d="M128.173329 108.425166l-4.434853 11.260652h8.782149l-4.347296-11.260652zm-6.695831 17.129707l-2.217198 5.608664h-7.956287l13.129902-30.433355h7.956287l12.825733 30.433355h-8.260912l-2.17342-5.608664h-13.304105zm46.216919-12.825049l-5.390684 3.26013c-1.087166-1.521303-2.69557-2.433811-4.739023-2.433811-2.91355 0-4.913225 2.390489-4.913225 5.911922 0 3.608534 1.999675 5.956613 4.913225 5.956613 2.130098 0 3.781824-.869642 4.781889-2.652248l5.478241 3.217264c-1.912573 3.434788-5.695309 5.434918-10.651856 5.434918-7.217069 0-12.086059-4.782345-12.086059-11.912768 0-7.217069 4.912313-12.042737 12.172704-12.042737 4.652378 0 8.391791 1.912574 10.434788 5.260717m16.696573 10.477427v-2.086775h-4.739023c-2.260977 0-3.391009.782996-3.391009 2.521824 0 1.695505 1.217133 2.782671 3.303908 2.782671 2.347623 0 4.347753-1.304691 4.826124-3.21772m7.390815-7.347492v15.303778h-7.347492v-2.69557c-1.521759 1.999675-3.999805 3.043518-7.173746 3.043518-4.99987 0-8.042932-3.043518-8.042932-7.347492 0-4.434853 3.173942-7.043322 8.999674-7.086644h6.173681v-.347948c0-2.3043-1.522215-3.695636-4.565277-3.695636-1.956807 0-4.521498.69544-6.999544 1.956352l-2.130097-4.956547c3.651856-1.695049 6.956221-2.651335 10.868925-2.651335 6.434527 0 10.173029 3.173485 10.216808 8.477524m21.435048 3.652085c0-3.608535-2.087231-6.087036-5.217394-6.087036-3.130163 0-5.217394 2.478501-5.261172 6.087036.043778 3.608534 2.131009 6.129902 5.261172 6.129902s5.217394-2.521368 5.217394-6.129902zm7.521238 11.651921h-7.521238v-3.08684c-1.652182 2.173876-4.043583 3.39101-7.043322 3.39101-6.60873 0-10.956482-4.86899-10.956482-12.130293 0-7.17329 4.30443-11.912313 10.782736-11.912313 3.086384 0 5.564886 1.217134 7.217068 3.391466V98.9040261h7.521238v32.2597389zm21.086828-13.738742c0-2.869772-1.825473-4.739023-4.521499-4.739023-2.608469 0-4.391075 1.913029-4.869446 4.739023h9.390945zm7.217068 4.043127h-16.47759c.739219 2.782671 2.739349 4.347752 5.52202 4.347752 2.042997 0 4.043127-.825863 5.608664-2.3914l3.95557 3.869837c-2.390488 2.608013-5.912377 4.130228-10.216807 4.130228-7.651662 0-12.434463-4.782346-12.434463-11.912769 0-7.260847 4.957003-12.042736 12.21785-12.042736 8.26 0 12.346906 5.434006 11.824756 13.999088zm43.825792-5.08656v14.782084h-7.477916v-12.695309c0-2.782215-1.565537-4.478176-4.044039-4.478176-2.825993.087101-4.564365 2.391401-4.564365 5.564886v11.608599h-7.52215v-12.695309c0-2.782215-1.521302-4.478176-3.999804-4.478176-2.869316.087101-4.651466 2.391401-4.651466 5.564886v11.608599h-7.478371v-23.434267h7.478371v3.869837c1.607948-2.782671 4.303518-4.174006 7.738306-4.216873 3.826059 0 6.651596 1.999219 7.826319 5.303583 1.521303-3.47811 4.390619-5.260716 8.26-5.303583 5.13075 0 8.435115 3.520978 8.435115 8.999219"/>
    <g transform="translate(294.136808 107.568339)">
      <mask id="b" fill="#fff">
        <use xlink:href="#a"/>
      </mask>
      <path fill="#FFF" d="M16.1227557 26.030013c-1.7388274 4.2606515-4.6957003 6.3478828-9.04299674 6.3478828-2.60892508 0-4.7390228-.7825408-6.82625407-2.3914007l3.13061889-5.1298371c1.0867101.8691856 2.00013029 1.26 3.08684039 1.26 1.347557 0 2.30429967-.6083388 2.91309446-1.8692508l.56501629-1.1738111L.21018241.1610228h7.73876222l5.73954397 15.5650814L18.7750033.1610228h7.4779153L16.1227557 26.030013z" mask="url(#b)"/>
    </g>
    <path fill="#000" d="M195.023466 37.7451401c-.845016 0-1.529512-.6849512-1.529512-1.5295114V23.3652704c0-.8450163.684496-1.5299675 1.529512-1.5299675.845472 0 1.529511.6849512 1.529511 1.5299675v12.8503583c0 .8445602-.684039 1.5295114-1.529511 1.5295114"/>
    <path fill="#F79B1C" d="M156.879805 2.29513355L119.890619 22.4264039c-1.555505.786645-1.231726 3.097329.479739 3.4256678l40.709903 7.8035179c.28.0538111.568664.0414983.843192-.0364821l38.489967-10.9227362c1.650815-.4687948 1.804039-2.748925.230293-3.4334202L162.909837 2.12184365c-1.935374-.84273616-4.145733-.77889251-6.030032.1732899"/>
    <path fill="#FDC010" d="M120.109147 24.9398827l36.604299-17.10234524c1.883388-.95218241 4.094202-1.01557003 6.029577-.1732899l38.071335 14.41452764c.230749.1003258.275896 1.1446255.433225 1.3033225.508469-.8742019.254463-2.1300977-.845016-2.6089251L162.668691 3.63206515c-1.935375-.84228013-4.145733-.77843649-6.030033.17374592L119.649472 23.9370814c-1.191596.6024105-1.277329 2.0963518-.483843 2.9117264.165537-.2813681.603322-1.7370032.943518-1.9089251"/>
    <path fill="#F7A778" d="M187.361407 52.3669316c.031466 13.9160912-11.223713 25.2237134-25.14026 25.2551791-13.916548.0319219-25.223258-11.2237133-25.25518-25.1402605-.031921-13.9165473 11.22417-25.2237134 25.139805-25.2551792 13.917003-.0319218 25.224169 11.2237134 25.255635 25.1402606"/>
    <path fill="#FDD68A" d="M180.986847 49.1979153c.028274 12.1576547-9.805472 22.0365472-21.963583 22.0643648-12.158111.0278176-22.036547-9.8059283-22.064821-21.9640391-.027362-12.1576547 9.805928-22.0370032 21.964039-22.0643648 12.158111-.0278176 22.036547 9.8059284 22.064365 21.9640391"/>
    <path fill="#000" d="M162.10942 28.6616026c-13.102541.0296417-23.738436 10.7138762-23.708339 23.817329.029642 13.1025407 10.714333 23.7379805 23.816417 23.7083388 13.103453-.0300978 23.738893-10.7143323 23.709251-23.817329-.030098-13.1025407-10.714788-23.7379805-23.817329-23.7083388m.114919 50.3954397c-7.114007.015961-13.808013-2.7388925-18.849837-7.7574592-5.041824-5.0190228-7.827232-11.7007167-7.843193-18.8147232-.016416-7.1135505 2.738893-13.808013 7.75746-18.8498371 5.018567-5.0413681 11.70026-7.8272313 18.813811-7.8431922 7.114006-.0164169 13.808469 2.7384365 18.849837 7.7574593 5.04228 5.0185668 7.827687 11.7002606 7.844104 18.8142671.016417 7.1135505-2.738892 13.808013-7.757459 18.8502932-5.019023 5.040912-11.700717 7.8267752-18.814723 7.8431921"/>
    <path fill="#0F1B26" d="M162.195381 66.3923779c-4.486384.0100325-8.400456-3.0129642-9.518176-7.3529642-.197915-.7679479.264495-1.5500326 1.031987-1.7474919.767948-.1979153 1.549577.2640391 1.747036 1.031531.790293 3.0685993 3.558827 5.2064495 6.732313 5.1991531 3.173941-.0077525 5.932899-2.1579153 6.709055-5.2301629.194267-.7679479.974528-1.2340065 1.742932-1.0397394.768404.1942671 1.234006.9745277 1.039739 1.7429316-1.097655 4.3450163-4.998046 7.3867101-9.484886 7.3967427m-7.72084-12.2098242c-.673551-.1071661-1.1843-.6940716-1.176548-1.3968078.020522-1.7921824 1.079414-4.4553746 3.913616-4.444886 1.030619.0036482 1.911661.3748535 2.55101 1.0712052 1.202997 1.3128991 1.075309 3.3007167 1.057068 3.5237134-.064755.769316-.74013 1.3416287-1.509902 1.277329-.770684-.0638437-1.342085-.7396743-1.277785-1.5094463.02645-.3867101-.060195-1.1099674-.334267-1.4041042-.044235-.0478827-.150033-.1605212-.496612-.1614332-1.074854-.0041043-1.104952 1.610228-1.105864 1.679544-.00912.7720521-.642084 1.3913355-1.414593 1.382671-.069771-.0009121-.139087-.0072965-.206123-.0177851m10.101159.0387623c-.625211-.0998697-1.123648-.6174593-1.173355-1.275961-.016417-.2225407-.129055-2.2117263 1.083974-3.5150488.644365-.6922476 1.529056-1.0557003 2.558762-1.0520521 2.833746.0114006 3.87303 2.6814332 3.87987 4.4740716.003192.7725082-.620651 1.4009121-1.393159 1.4036482-.771141.0036482-1.396808-.6160912-1.404105-1.3849511-.005472-.2859283-.082996-1.6927687-1.092638-1.6959609-.350684-.0013681-.456026.1121824-.501173.1609772-.312834.3351791-.360716 1.1542019-.342475 1.3981759.058371.770684-.518958 1.4419544-1.289186 1.4998697-.11127.0086645-.221173.0041042-.326515-.0127687"/>
    <path fill="#FDC010" d="M138.266919 39.5447557s9.219478-1.3334202 19.178631 3.1484039c3.010685 1.3553095 6.491987 1.2545277 9.343518-.4099674 3.230489-1.8861238 8.459284-4.0759609 16.221303-5.0126385l-.217524-13.1832573c-.046059-2.7744625-2.068078-5.1248208-4.806971-5.5699023-7.63114-1.2413029-23.194853-2.7001303-36.934006 2.7311401-2.31342.9143322-3.765863 3.2259283-3.60443 5.7080782l.819479 12.5881433z"/>
    <path fill="#F79B1C" d="M137.318339 26.7956352s33.535244-6.1841694 45.467166 4.5246905c0 0 8.260456-16.2158306-22.836873-13.8714006-22.794919 1.7183062-22.630293 9.3467101-22.630293 9.3467101"/>
    <path fill="#000" d="M141.710691 37.8235309c3.733485 0 9.874788.5549838 16.362671 3.4749186 2.605276 1.171987 5.574918 1.0470358 7.94443-.3365472 2.956416-1.7256026 7.983192-3.9496417 15.440586-5.0290554l-.195635-11.8197394c-.03329-2.0411726-1.514919-3.7599349-3.522346-4.0855375-7.788925-1.2682084-22.840065-2.608925-36.125928 2.6431271-1.699153.6717264-2.75987 2.3544625-2.640391 4.1867752l.717329 11.0230619c.553616-.0323778 1.232639-.0570033 2.019284-.0570033m20.052377 7.331531c-1.672703 0-3.360912-.3534202-4.945602-1.067101-9.402345-4.2310098-18.245603-3.0416938-18.333616-3.0289251-.420456.0601955-.850032-.0583713-1.180651-.3274267-.330619-.2685993-.535375-.6626058-.562736-1.0876221l-.819479-12.5876873c-.205668-3.1634528 1.630293-6.0692508 4.568925-7.2307492 13.967622-5.5211075 29.641694-4.1361564 37.741172-2.817785 3.471271.5641042 6.032769 3.5310097 6.09114 7.0542671l.217981 13.1828013c.012769.7839088-.568209 1.4501628-1.346189 1.5441042-7.695896.9289251-12.749577 3.1310749-15.633485 4.8151792-1.765733 1.0310749-3.769968 1.5509446-5.79746 1.5509446"/>
    <path fill="#000" d="M137.413648 30.6767362l-17.33127-3.3221499c-1.432378-.2749837-2.489446-1.3858632-2.691922-2.8310098-.201563-1.436482.499349-2.7872312 1.786254-3.4507491L156.148567.95158958c.013681-.00775245.027361-.01459284.041042-.02143323 2.299284-1.1619544 4.970228-1.23811075 7.330619-.21114006L201.27645 17.8701564c1.294657.5631921 2.083583 1.8596742 1.987361 3.2929641-.096221 1.4328339-1.050684 2.6125733-2.432899 3.0052117l-16.831922 4.776417-.83544-2.9436482 16.831922-4.776873c.055179-.0155049.20202-.0570032.216157-.2663192.01368-.2088599-.125864-.2695114-.178763-.2923127L162.276645 3.51445603c-1.493941-.65029316-3.209967-.60377851-4.687036.13589576L120.621857 23.7697655c-.013681.0077524-.027362.0150488-.041043.0218892-.051987.0264495-.190163.0957655-.160977.3069056.030098.210684.181955.2403257.238958.2508143l17.33127 3.3221498-.576417 3.0052118zm60.975245 5.5386645c0 1.8583061-1.506711 3.3654723-3.365473 3.3654723-1.858306 0-3.365472-1.5071662-3.365472-3.3654723 0-1.8587623 1.507166-3.3654724 3.365472-3.3654724 1.858762 0 3.365473 1.5067101 3.365473 3.3654724"/>
    <path fill="#000" d="M192.648482 36.0724365c-.917068 1.5295114-1.358958 3.254658-1.270945 5.0368078.05746 1.1669707 1.879284 1.173355 1.821369 0-.072965-1.4825407.257654-2.8424104 1.021954-4.1174593.604234-1.0073615-.969511-1.92443-1.572378-.9193485"/>
    <path fill="#000" d="M192.345179 37.6676612c-.17557 1.5518567-.24899 3.1055375-.220716 4.6665147.020977 1.1710749 1.842345 1.1747231 1.821368 0-.028274-1.5614332.045146-3.114658.220716-4.6665147.13088-1.1628664-1.6914-1.1532899-1.821368 0"/>
    <path fill="#000" d="M193.432254 38.1281107c-.105342 1.6599349.058827 3.2993486.472443 4.9104886.291857 1.1341369 2.048925.6530294 1.756612-.4847557-.375765-1.4611074-.503452-2.9213029-.408143-4.4257329.074332-1.1701628-1.747036-1.1660586-1.820912 0m2.480964-1.3680781c.522606 1.3338762.790293 2.6873615.787101 4.1206514-.002736 1.171987 1.818632 1.1738111 1.821368 0 .003649-1.5851465-.273159-3.1283387-.852312-4.6049511-.423193-1.0789577-2.185277-.6092508-1.756157.4842997"/>
    <path fill="#000" d="M194.966007 38.3018111c.513485 1.3115309.708664 2.6285342.591465 4.0317264-.097589 1.1678827 1.724235 1.1614983 1.821368 0 .129056-1.5450163-.091205-3.0722476-.656221-4.5160261-.422736-1.0794137-2.184365-.6097068-1.756612.4842997"/>
    <path fill="#000" d="M194.265915 38.8157524v1.6827362c0 1.171987 1.821368 1.1742671 1.821368 0v-1.6827362c0-1.1715309-1.821368-1.173811-1.821368 0m-73.359179-13.2880065l-.395374-.8281433 36.355309-17.34175895c.194723-.11628665 1.32658-.73921824 3.201303-.73921824 1.996482 0 3.758111.85368078 3.831987.88970684L200.07286 21.4777785l-.330619.8559609L163.53286 8.34878827c-.053355-.02416938-1.687753-.81218241-3.464886-.81218241-1.736547 0-2.727036.60697069-2.737068.61335505-.014593.00912052-.031922.01869707-.047427.02599349l-36.376743 17.3517915z"/>
    <path fill="#000" d="M178.502736 38.2251987l-.91798-19.5808469.916612-.0424104.917981 19.5803908z"/>
  </g>
</svg>
