<svg xmlns="http://www.w3.org/2000/svg" xmlns:xlink="http://www.w3.org/1999/xlink" width="270" height="172">
  <defs>
    <linearGradient id="c" x1="100%" x2="0%" y1="0%" y2="100%">
      <stop offset="0%" stop-color="#70C6E2"/>
      <stop offset="100%" stop-color="#5095B7"/>
    </linearGradient>
    <rect id="a" width="220" height="122.941176" rx="10"/>
    <filter id="b" width="138.6%" height="169.1%" x="-19.3%" y="-26.4%" filterUnits="objectBoundingBox">
      <feMorphology in="SourceAlpha" operator="dilate" radius="2.5" result="shadowSpreadOuter1"/>
      <feOffset dy="10" in="shadowSpreadOuter1" result="shadowOffsetOuter1"/>
      <feGaussianBlur in="shadowOffsetOuter1" result="shadowBlurOuter1" stdDeviation="10"/>
      <feColorMatrix in="shadowBlurOuter1" values="0 0 0 0 0.364705882 0 0 0 0 0.470588235 0 0 0 0 0.568627451 0 0 0 0.2 0"/>
    </filter>
    <path id="e" d="M.00130655.44834978H138.404631V127.202296H.00130655z"/>
    <path id="g" d="M0 6.93514329h45.9615791V.05367981H0z"/>
    <path id="i" d="M0 17.5134149h13.9782147V0H0z"/>
  </defs>
  <g fill="none" fill-rule="evenodd" transform="translate(25 15)">
    <mask id="d" fill="#fff">
      <use xlink:href="#a"/>
    </mask>
    <use fill="#000" filter="url(#b)" xlink:href="#a"/>
    <use fill="url(#c)" xlink:href="#a"/>
    <g mask="url(#d)" opacity=".15">
      <path fill="#FFF" d="M223.9856856 50.7050627c0 3.8849169-3.1536282 7.0342283-7.0438703 7.0342283s-7.0431029-3.1493114-7.0431029-7.0342283c0-3.884917 3.1528608-7.0342283 7.0431029-7.0342283s7.0438703 3.1493113 7.0438703 7.0342283M202.2680379 89.979504c-11.5857419 0-21.6747245-7.758845-24.5359961-18.867361-.5060544-1.964513.6910472-3.963864 2.6739856-4.464459 1.9852317-.50211 4.0010407.684626 4.5070951 2.64914 2.0226889 7.855026 9.1594325 13.340366 17.3549154 13.340366s15.3329909-5.48534 17.3556798-13.340366c.5060545-1.964514 2.5233924-3.15125 4.5063308-2.649898 1.9829385.501353 3.1800395 2.499946 2.6747495 4.46446-2.8612711 11.109273-12.9510182 18.868118-24.5367601 18.868118m13.6281972 22.565905c.5975365-2.587524 2.0609228-4.571901 3.9807499-5.970624-13.2175085-2.952607-24.9084075-2.087056-33.5322092-.366604-.774099.1544-1.5296936.318687-2.2721809.488298 1.9236821 1.733383 3.2691032 4.084364 3.8065005 6.730453.0824986-.016733.1634552-.034227.2459538-.050199 9.3670601-1.829977 18.6069027-1.867246 27.6493655-.153639.0385508-.227416.0709334-.455593.1218204-.677685"/>
      <path fill="#FFF" d="M224.5059469 136.226088c.0261934.022229.0539274.040624.0801208.062086 1.3535773-2.097878 2.8627743-4.067753 4.4906113-5.948715l-8.7015707-7.351388c-1.0562066-.893725-1.7010242-2.152298-1.8150421-3.543474-.1140179-1.391943.3174013-2.737896 1.2149072-3.788751l17.0171756-19.93789c.898276-1.051622 2.162488-1.693173 3.561519-1.806613.147145-.011497.29429-.017629.439894-.017629 1.24033 0 2.42211.4277 3.368151 1.226381l7.062948 5.967877c.862838-2.404474 2.439059-4.454063 4.456714-5.983207l-6.684686-5.648251c-2.577729-2.17836-5.86653-3.226149-9.250089-2.95098-3.387411.274403-6.458191 1.838039-8.646873 4.402708l-17.0179459 19.937124c-2.188682 2.564669-3.241807 5.832975-2.9660069 9.202457.2758002 3.370248 1.848169 6.42547 4.4251282 8.603829l8.9650445 7.574436zm-34.0445616-25.282952l-16.9804547-20.017225c-2.1846289-2.574974-5.2478752-4.144892-8.6278236-4.420397-3.3776423-.275505-6.6576604.775724-9.2289425 2.962836l-7.9429171 6.752187c.8086663 1.160508 1.4728181 2.426447 1.9524833 3.753181.409714 1.134343.8547879 2.254834 1.2806445 3.38225.1791058-.210092.3712793-.411718.5872824-.595645l8.946063-7.605638c.9439564-.801889 2.1231333-1.231308 3.360731-1.231308.1452832 0 .2921038.006157.4381557.0177 1.3967173.113896 2.6581445.758024 3.5544419 1.813871l16.9789173 20.017995c.8955288 1.055078 1.3259975 2.406438 1.2129995 3.803973-.1137668 1.396766-.7571638 2.660396-1.8118123 3.556942l-6.5754101 5.59014c1.8494783 1.684584 3.4468248 3.643134 4.6851911 5.805619l6.7137751-5.708653c2.5728195-2.186342 4.1409556-5.254609 4.4161481-8.638398.2751926-3.383019-.7756124-6.664456-2.9594726-9.23943"/>
      <g transform="translate(133.007317 29.016192)">
        <mask id="f" fill="#fff">
          <use xlink:href="#e"/>
        </mask>
        <path fill="#FFF" d="M132.21006.47516954c-2.217288 1.4881136-4.804251 2.09117509-7.361241 1.90113792 3.911187 8.07657954 6.10465 17.12786574 6.10465 26.68029834 0 10.4750324-3.274823 21.7393321-9.735315 33.4817898-5.266922 9.5731221-12.637386 19.4619512-21.9077238 29.3921593-12.5059634 13.3960871-25.1648697 23.2741891-30.0943958 26.9469631-4.9249148-3.711855-17.5945809-13.701066-30.1128412-27.1668851C29.829013 81.734448 22.4554748 71.8325922 17.187015 62.2793933c-6.4589551-11.7087414-9.73454602-22.8872178-9.73454602-33.2227875 0-9.7961093 2.31720008-19.05812223 6.41745292-27.28872378-2.6046405.417622-5.30535059-.00153255-7.66174709-1.31953224C2.1517297 9.31572908.00130655 19.0191186.00130655 29.0566058c0 11.6213856 3.59761643 24.0266746 10.69293685 36.8695088 5.5774199 10.0957243 13.3290882 20.5040905 23.0398089 30.9369775 16.4432822 17.6650269 32.633709 29.1737699 33.3146507 29.6557589.6455881.45517 1.3995427.683521 2.1542659.683521.7470376 0 1.4940753-.223753 2.135052-.670494.6824789-.475093 16.8805912-11.839775 33.3284851-29.4350708 9.714563-10.3922743 17.467769-20.7945102 23.047494-30.9185869 7.093783-12.8734853 10.690631-25.3630649 10.690631-37.1216145 0-10.0275255-2.14658-19.72095347-6.194571-28.58143626" mask="url(#f)"/>
      </g>
      <path fill="#FFF" d="M225.453079 115.771754c-1.4568381 0-2.6412282 1.183589-2.6412282 2.637756s1.1843901 2.637756 2.6412282 2.637756c1.456837 0 2.641227-1.183589 2.641227-2.637756s-1.18439-2.637756-2.641227-2.637756m0 8.20652c-3.0748739 0-5.576094-2.497932-5.576094-5.568764 0-3.070831 2.5012201-5.568764 5.576094-5.568764 3.074873 0 5.576093 2.497933 5.576093 5.568764 0 3.070832-2.50122 5.568764-5.576093 5.568764m-46.9565777-8.20652c-1.4568377 0-2.6412278 1.183589-2.6412278 2.637756s1.1843901 2.637756 2.6412278 2.637756 2.6412278-1.183589 2.6412278-2.637756-1.1843901-2.637756-2.6412278-2.637756m0 8.20652c-3.0748735 0-5.5760936-2.497932-5.5760936-5.568764 0-3.070831 2.5012201-5.568764 5.5760936-5.568764 3.0748735 0 5.5760936 2.497933 5.5760936 5.568764 0 3.070832-2.5012201 5.568764-5.5760936 5.568764m15.990227-69.1699115h-10.2630371c-2.0285108 0-3.6728396-1.7056522-3.6728396-3.809814 0-2.1049477 1.6443288-3.8106 3.6728396-3.8106h10.2630371c2.0285109 0 3.6728397 1.7056523 3.6728397 3.8106 0 2.1041618-1.6443288 3.809814-3.6728397 3.809814m-49.20381452-40.412549l-7.06826533-2.2682761C142.52839737-1.1426394 151.037133-13.1652642 162.1731946-21.726865c11.7291063-9.01677829 25.5300381-13.7832029 39.9117552-13.7832029 13.9526408 0 27.4149087 4.5099115 38.9325422 13.0441103 10.912329 8.0851105 19.483127 19.5421886 24.132475 32.2605197l-6.981684 2.5186999C254.007776.934584 246.340336-9.3168064 236.5765521-16.5509328c-10.2250407-7.5758901-22.1518286-11.58038707-34.4916023-11.58038707-12.720579 0-24.9500189 4.23284687-35.3658453 12.24031847-9.963764 7.6603796-17.5768029 18.4164234-21.43619072 30.2868149"/>
      <path fill="#FFF" d="M136.8541393 17.20701747c-2.55141583 0-4.62722199 2.06689076-4.62722199 4.60734853 0 2.5404577 2.07580616 4.6073485 4.62722199 4.6073485H266.961005c2.551416 0 4.627222-2.0668908 4.627222-4.6073485 0-2.54045777-2.075806-4.60734853-4.627222-4.60734853H136.8541393zM266.961005 33.8269273H136.8541393c-6.65239873 0-12.06437672-5.388734-12.06437672-12.0125613 0-6.62382731 5.41197799-12.01256134 12.06437672-12.01256134H266.961005c6.651632 0 12.06361 5.38873403 12.06361 12.01256134 0 6.6238273-5.411978 12.0125613-12.06361 12.0125613z"/>
      <path fill="#FFF" d="M184.0725949 13.775364h2.934786v-43.37774137h-2.934786zm32.8696041 0h2.934786v-43.37774137h-2.934786z"/>
    </g>
    <g mask="url(#d)">
      <g transform="translate(35.11757 21.943977)">
        <path fill="#FFF" d="M10.8507612 4.12354613c0-.57273475-.3642343-.94588149-.90203354-.94588149-.52042474 0-.8760168.38188322-.97153152.94588149h1.87356506zm1.4398328.80699849H9.00321287c.1475482.55544193.54653149.86779358 1.10161523.86779358.4076255 0 .8066088-.16482223 1.1188996-.47726395l.7893244.77232278c-.4770335.52076621-1.1796654.82438138-2.03839773.82438138-1.52652521 0-2.48059221-.9545279-2.48059221-2.37767335 0-1.44926481.98872598-2.40379271 2.43738102-2.40379271 1.64796662 0 2.46321772 1.08467442 2.35915082 2.79423227zm2.3157865-1.95244999c.3209331-.54661538.8500901-.85041068 1.517883-.85914716v1.35370394c-.8672846-.07808791-1.4397428.32973454-1.517883.98938375v2.40379272H13.105782V2.18838897h1.5005985v.78970566zm6.323075.20827947l-1.0755084.65082267c-.2168662-.30370524-.5377993-.48600043-.9455148-.48600043-.5810105 0-.9800838.47726395-.9800838 1.18023529 0 .72026417.3990733 1.18888171.9800838 1.18888171.425 0 .7546653-.17355872.954067-.52932256l1.0929729.64217625c-.3816988.68549839-1.1362741 1.08467443-2.1250901 1.08467443-1.4398328 0-2.4111843-.95452791-2.4111843-2.37776342 0-1.44052833.9800838-2.40370265 2.4286488-2.40370265.9280502 0 1.6739834.38179315 2.0816089 1.04999871"/>
        <mask id="h" fill="#fff">
          <use xlink:href="#g"/>
        </mask>
        <path fill="#FFF" d="M21.6840038 6.86579186h1.4919563V2.18844301h-1.4919563v4.67734885zM23.2279936.84329541c0 .46852747-.3296654.79835208-.7892344.79835208-.459749 0-.7894143-.32982461-.7894143-.79835208 0-.45988106.3296653-.7896156.7894143-.7896156.459569 0 .7892344.32973454.7892344.7896156zm6.71329 4.05259151c0 1.29290886-.8066088 2.03929239-2.0990734 2.03929239-.8585523 0-1.552542-.35585391-2.0902512-.97191079l.7112742-1.03270588c.4336422.45132471.9192279.67685197 1.27491.67685197.4077156 0 .6505985-.25164663.6505985-.74620341V2.03221314h-2.081699V.78262642h3.6342409v4.1132605zm3.7644506.38181116v-.41655893h-.9454248c-.4511968 0-.6767052.15617583-.6767052.50338332 0 .33838096.2429729.55535187.6593307.55535187.4683913 0 .8672846-.26038311.9627993-.64217626m1.4745817-1.46646757V6.8658459h-1.4659395v-.53814911c-.3035586.39926611-.7980566.60741047-1.4311005.60741047-.9976383 0-1.6046654-.60741047-1.6046654-1.46646757 0-.88517647.6330439-1.40576255 1.7953348-1.4145891h1.2317889v-.06926136c0-.46015126-.3035586-.73773713-.9107658-.73773713-.390251 0-.9021236.13879293-1.3964415.39043956l-.4250901-.98920362c.7285586-.33829088 1.3877093-.52932256 2.1683914-.52932256 1.2838224 0 2.0297555.63343978 2.0384877 1.69226503m5.1867018-.62485641l-1.0755084.65082267c-.2168661-.30370524-.5377992-.48600043-.9455148-.48600043-.5811004 0-.9800837.47726395-.9800837 1.18023529 0 .72026417.3989833 1.18888171.9800837 1.18888171.425 0 .7546654-.17355872.954157-.52932256l1.092883.64217625c-.3816988.68549839-1.1362742 1.08467443-2.1250902 1.08467443-1.4398327 0-2.4111842-.95452791-2.4111842-2.37776342 0-1.44052833.9800837-2.40370265 2.4286487-2.40370265.9281403 0 1.6739834.38179315 2.0816089 1.04999871m2.2984931 2.40374768v1.27561604h-1.5005085V.42677251h1.5005085v3.40164275l1.5438997-1.64002629h1.7000902L44.192126 3.98468115l1.7694081 2.88105667h-1.7780503l-1.0148327-1.80502866zM4.98740821.78251834L3.33944156 4.40122206 1.69138489.78251834H.00002701V6.8657198h1.37906703V2.91728153l1.45729728 3.34093773H3.8424918l1.45720726-3.34093773.00864223 3.94843827h1.36178256V.78251834z" mask="url(#h)"/>
      </g>
      <g transform="translate(17.563025 16.638655)">
        <path fill="#FFD886" d="M12.9476969 8.55129703c0 4.45422107-5.92293818 8.62288557-5.92293818 8.62288557s-5.92286864-4.2241524-5.92286864-8.62288557c0-3.29226255 2.65174434-5.96121263 5.92286864-5.96121263 3.27119378 0 5.92293818 2.66895008 5.92293818 5.96121263z"/>
        <mask id="j" fill="#fff">
          <use xlink:href="#i"/>
        </mask>
        <path fill="#F9A978" d="M1.43891649 6.99967023H12.6107678v-.99360541H1.43891649z" mask="url(#j)"/>
        <path fill="#0E1B26" d="M8.9780338 7.88618317c0 .35475911-.28573932.6423449-.63822068.6423449-.35248135 0-.63815115-.28758579-.63815115-.6423449 0-.35475912.2856698-.64234491.63815115-.64234491.35248136 0 .63822068.28758579.63822068.64234491M7.02480044 11.5017103c-1.05368983 0-1.97125371-.7168653-2.23147811-1.74321768-.0460242-.18150792.06284874-.36623456.24319127-.41248619.1805511-.04639158.36388312.06325488.40990731.2447628.18395773.72575177.83302398 1.23256047 1.57837953 1.23256047.74535554 0 1.39449132-.5068087 1.57844904-1.23256047.04602419-.18150792.22949526-.29115438.40983779-.24483277.18034253.0463216.28921547.23097827.2432608.41248619-.2602244 1.02642235-1.17785781 1.74328765-2.23154763 1.74328765" mask="url(#j)"/>
        <path fill="#4D95BA" d="M10.4283381 14.0370415c-3.65975754-2.0183485-6.78759504 0-6.78759504 0l3.21307263 3.0160822 3.57452241-3.0160822z" mask="url(#j)"/>
        <path fill="#0E1B26" d="M10.2663775 14.3344934c-1.43731748-.7926453-2.9547949-1.0373381-4.51050994-.7272912-1.17069695.2332873-1.92627236.7109177-1.93371132.7157457l-.36332693-.571463c.03413577-.0219713.84991806-.5418648 2.13650976-.8037708 1.18592247-.2413342 3.0151408-.3000409 4.99494583.7918755l-.3239074.5949038z" mask="url(#j)"/>
        <path fill="#4D95BA" d="M8.8406495 15.0680051c.09336932.0798382.19522044.1430232.30145151.1927034.43875933-.5183541.97610219-.9481234 1.48751299-1.3972051.1761017-.1546386.3495614-.3127058.5130794-.480919.0755714-.0777391.1467629-.1589769.2191363-.2397248.0175198-.0195223.0549927-.0734009.0632659-.0848063.0528375-.0787188.1025464-.1595367.1471801-.2432234.0118884-.0222512.0226645-.045412.0336491-.0683629.0215521-.0811678.0398367-.168633.0639611-.2497308.0022943-.0407938.0068133-.0820774.007439-.1221715.0004171-.0236506.0029199-.0466015.004519-.0699022-.0694535-.1090167-.1554533-.2097068-.2583473-.2976618-.5615369-.4800094-1.4111768-.4102471-1.88810427.1549184l-.84866664 1.0057806c-.47692744.5652356-.40761306 1.420366.15392381 1.9003054" mask="url(#j)"/>
        <path fill="#0E1B26" d="M9.02701967 15.6722711c.00236378.0020292.0048666.0037085.00723039.0056677.12215182-.1915139.25834728-.3713425.40524927-.5430543l-.78526172-.6711035c-.09531596-.0815876-.15350667-.196482-.16379607-.3234815-.01028939-.1270696.02864346-.2499408.1096377-.3458727l1.53569246-1.8201171c.0810637-.0960019.1951509-.1545687.3214046-.1649246.0132788-.0010495.0265577-.0016093.0396976-.0016093.1119319 0 .2185801.0390445.3039543.1119555l.6373864.5448037c.0778657-.2195029.2201097-.4066086.4021903-.5462031l-.6032507-.5156252c-.2326238-.1988611-.5294172-.2945131-.834762-.2693931-.3056924.0250501-.58281091.1677934-.78032561.4019204l-1.53576195 1.8200472c-.1975147.234127-.29255257.5324886-.26766336.8400864.02488922.3076678.16678556.5865771.39933982.7854381l.80903857.6914654z" mask="url(#j)"/>
        <path fill="#4D95BA" d="M2.87739498 12.804467c.08419229.163525.18027301.3133355.28226317.4646854.01779788.0212716.03538718.0427531.0536022.0636048.05728691.0662637.11624237.130848.17658829.1943128.2405494.2528096.50188617.4841377.76002488.7184047.3186932.2892651.6325198.5947638.90657926.9307004.05096033-.032677.1008778-.0677331.14822293-.108177.56153687-.4799394.63078172-1.3350698.15392381-1.9003054l-.84866664-1.0057806c-.47692744-.5651655-1.3265674-.6349278-1.88810426-.1549184-.10810819.0923633-.1975147.198861-.2687062.3142452.22233439.1022994.41289679.266874.52427256.4832281" mask="url(#j)"/>
        <path fill="#0E1B26" d="M5.95897886 13.3552952L4.4232169 11.535248c-.1975147-.234127-.47463317-.3768703-.78032558-.4019204-.30541432-.02505-.60206874.070532-.83469253.269393l-.71838064.6139362c.07320766.1055181.13320597.2206224.17658829.3412545.03712526.1031391.07730952.2050186.11582523.3075279.01619885-.0191024.03357959-.0374351.05318506-.0541585l.80903856-.6915354c.08537419-.072911.19202239-.1119555.30395434-.1119555.01313984 0 .02641872.0005598.0396976.0016093.12625368.0103559.24041036.0689227.3214046.1649245l1.53569243 1.8201172c.08099424.0959319.11992709.2188031.10963769.3458727-.01028939.1269995-.0684801.2418939-.16386559.3234115l-.59462979.5082782c.1672027.1531692.31167139.3312484.42367286.5278703l.60728296-.5190538c.23262379-.1987911.37445061-.4777703.39933982-.7854381.02488922-.3075978-.07014865-.6059594-.26766335-.8400864" mask="url(#j)"/>
        <path fill="#0E1B26" d="M7.02480044 2.92929569c-3.08007524 0-5.58589091 2.52200844-5.58589091 5.62198735 0 .94378519.29623729 1.96453986.88057768 3.03378516.47657982.8722736 1.143583 1.7764545 1.98251643 2.6874228 1.13232028 1.2296217 2.27847563 2.1417794 2.72397869 2.4807248.44592019-.3353768 1.5910327-1.2373886 2.72231013-2.4606428.83858584-.9067699 1.50531094-1.8097613 1.98175164-2.6839241.58441-1.0722542.8806472-2.10084573.8806472-3.05736586 0-3.09997891-2.5058156-5.62198735-5.58589086-5.62198735m0 14.58409821c-.06827154 0-.13647355-.0208517-.19487283-.0624152-.06159733-.0440125-1.52623731-1.0949252-3.01361129-2.7079946-.87842247-.9526716-1.57963094-1.9031042-2.08415899-2.8249881-.64183586-1.1727343-.9672728-2.3055144-.9672728-3.36671296 0-1.68290167.65115195-3.26504336 1.83345923-4.4549908C3.78072057 2.90627483 5.35270398 2.2509151 7.02480044 2.2509151c1.67209645 0 3.24407986.65535973 4.42645666 1.84537714 1.1823073 1.18994744 1.8334592 2.77208913 1.8334592 4.4549908 0 1.07372359-.3253674 2.21420066-.9670642 3.38980376-.5047366.9244729-1.2061536 1.8743457-2.0848542 2.8232389-1.48786065 1.6067019-2.95319585 2.6444598-3.01486271 2.6878425-.05798214.0407938-.12555845.0612257-.19313475.0612257" mask="url(#j)"/>
        <path fill="#FFD400" d="M5.21489559 14.0773945c0 .2097766-.16901029.3798791-.3774401.3798791-.2084298 0-.37744009-.1701025-.37744009-.3798791 0-.2097767.16901029-.3798792.37744009-.3798792.20842981 0 .3774401.1701025.3774401.3798792m4.36192547 0c0 .2097766-.16901029.3798791-.3774401.3798791-.2084298 0-.37744009-.1701025-.37744009-.3798791 0-.2097767.16901029-.3798792.37744009-.3798792.20842981 0 .3774401.1701025.3774401.3798792" mask="url(#j)"/>
        <path fill="#0E1B26" d="M4.83744159 13.8331774c-.13383168 0-.24263509.1095765-.24263509.2442031 0 .1346265.10880341.244203.24263509.244203s.24263509-.1095765.24263509-.244203c0-.1346266-.10880341-.2442031-.24263509-.2442031m0 .7597583c-.28247174 0-.51224509-.2312581-.51224509-.5155552 0-.2842971.22977335-.5155553.51224509-.5155553.28247174 0 .51224509.2312582.51224509.5155553 0 .2842971-.22977335.5155552-.51224509.5155552m4.36192547-.7597583c-.13383168 0-.24263509.1095765-.24263509.2442031 0 .1346265.10880341.244203.24263509.244203s.24263509-.1095765.24263509-.244203c0-.1346266-.10880341-.2442031-.24263509-.2442031m0 .7597583c-.28247174 0-.51224509-.2312581-.51224509-.5155552 0-.2842971.22977335-.5155553.51224509-.5155553.28247174 0 .51224509.2312582.51224509.5155553 0 .2842971-.22977335.5155552-.51224509.5155552M6.31826651 8.22538746h-.94161883c-.18611293 0-.33697774-.1518397-.33697774-.33915531 0-.18738559.15086481-.33922529.33697774-.33922529h.94161883c.18611294 0 .33697774.1518397.33697774.33922529 0 .18731561-.1508648.33915531-.33697774.33915531" mask="url(#j)"/>
        <path fill="#FFC20E" d="M12.8848968 4.14434916h-.1464849c-.4235338-1.16097894-1.1977413-2.20629382-2.1821168-2.94520038C9.51129568.41469031 8.28970793.00003498 7.02376454.00003498c-1.30494576 0-2.55726265.438166-3.62151996 1.26712679-.94509498.73610767-1.6816211 1.75077472-2.09319696 2.87718739h-.21566019c-.6028335 0-1.0933179.49365395-1.0933179 1.10045298 0 .60672905.4904844 1.100383 1.0933179 1.100383H12.8848968c.602903 0 1.0933874-.49365395 1.0933874-1.100383 0-.60679903-.4904844-1.10045298-1.0933874-1.10045298" mask="url(#j)"/>
        <path fill="#F99D1C" d="M4.28635403 4.48351147v1.56184974S.43429596 6.49430292.33703335 5.24473916c-.0972626-1.24956376 3.94932068-.76122769 3.94932068-.76122769" mask="url(#j)"/>
        <path fill="#F99D1C" d="M7.02371588.3391973s-3.2253782 1.25453178-3.2253782 4.14431417H1.54899217S2.8084004.3391973 7.02371588.3391973" mask="url(#j)"/>
        <path fill="#0E1B26" d="M1.86968068 4.58779105l-.64134921-.20851719c.39141421-1.21989554 1.16346656-2.32510663 2.17391311-3.11215407C4.46650189.43822897 5.71874926.00006297 7.02369502.00006297c1.26601291 0 2.48753113.41458536 3.53260008 1.1991138.9901459.74324484 1.7678296 1.79646657 2.1896949 2.96563226l-.6334932.23153805c-.3775096-1.04601459-1.0732257-1.98840035-1.9591567-2.65341625C9.22555636 1.04649741 8.14336212.6783736 7.02369502.6783736c-1.15422001 0-2.2638758.38911547-3.20897078 1.12522314-.90407644.70420034-1.59485646 1.69297767-1.94504356 2.78419431" mask="url(#j)"/>
        <path fill="#0E1B26" d="M1.09338743 4.82271576c-.23123333 0-.41936243.1893448-.41936243.42207238 0 .23272758.1881291.42207238.41936243.42207238H12.8848968c.2312333 0 .4193624-.1893448.4193624-.42207238 0-.23272758-.1881291-.42207238-.4193624-.42207238H1.09338743zM12.8848968 6.34524112H1.09338743C.49048441 6.34524112 0 5.85158716 0 5.24478814s.4904844-1.10045298 1.09338743-1.10045298H12.8848968c.6028335 0 1.0933179.49365396 1.0933179 1.10045298s-.4904844 1.10045298-1.0933179 1.10045298z" mask="url(#j)"/>
      </g>
    </g>
    <text fill="#FFF" font-family="Montserrat-Bold, Montserrat" font-size="10" font-weight="bold" mask="url(#d)">
      <tspan x="34.6589076" y="68.2857143">0000 0000 0000 0000</tspan>
    </text>
    <text fill="#FFF" font-family="Montserrat-Light, Montserrat" font-size="9" font-weight="300" letter-spacing=".20000003" mask="url(#d)">
      <tspan x="18" y="99">Merci Jack</tspan>
    </text>
    <text fill="#FFF" font-family="Montserrat-Light, Montserrat" font-size="9" font-weight="300" letter-spacing=".20000003" mask="url(#d)">
      <tspan x="169.834512" y="99">02/20</tspan>
    </text>
    <text fill="#FFF" font-family="Montserrat-Light, Montserrat" font-size="9" font-weight="300" mask="url(#d)">
      <tspan x="89.6638655" y="29.4285714">Standard Card</tspan>
    </text>
    <path stroke="#FFF" stroke-linecap="round" d="M85.5042017 21.2605042v9.2436975" mask="url(#d)"/>
  </g>
</svg>
