<svg xmlns="http://www.w3.org/2000/svg" xmlns:xlink="http://www.w3.org/1999/xlink" width="554" height="637">
  <defs>
    <path id="a" d="M0 580.006269h553.849923V0H0z"/>
  </defs>
  <g fill="none" fill-rule="evenodd" transform="translate(0 28)">
    <path fill="#FDD68A" d="M199.590849 302.824547c14.696437 0 26.99335-11.495929 27.806341-26.347588.841291-15.370499-10.935068-28.512133-26.305567-29.354282-.439083-.024012-1.203192-.04974-2.276031-.066034-19.353124-.304443-68.611956-5.858164-107.971684-50.74074-10.1503777-11.573969-27.7591733-12.728279-39.3314272-2.578758-11.5731115 10.148662-12.7282786 27.758315-2.5796161 39.332284 54.0767463 61.663802 122.2187463 69.301456 149.0045603 69.723387l.515409.008576c.37991.015437.761535.023155 1.138015.023155"/>
    <path fill="#F6A87C" d="M71.2905381 231.158815s22.3169381 24.680443 59.0576009 39.137613l-1.286378 21.09831s-64.5135573-37.105994-74.1005016-51.734681l16.3292787-8.501242z"/>
    <path fill="#000" d="M69.8568272 192.393309c-5.4062167 0-10.5663065 1.937284-14.6681362 5.534854-9.2447678 8.105895-10.1709597 22.221746-2.065065 31.465657 52.604272 59.98465 118.85787 67.414767 144.901873 67.825551l.517981.008575c.044595.000858.090905.001716.136357.003431 12.224876.517981 22.487597-8.93861 23.151368-21.059718.672347-12.276332-8.768808-22.810908-21.044282-23.483254-.394489-.02144-1.08656-.043737-2.056489-.058316-20.098365-.316449-71.246458-6.078564-112.0769442-52.639434-3.92774-4.477452-9.3631146-7.158263-15.3070372-7.548464-.4982569-.032588-.9947987-.048882-1.4896254-.048882M199.590592 308.39885c-.428793 0-.861873-.008575-1.294096-.02487l-.449375-.007718c-27.527625-.433938-97.558885-8.280842-153.1046746-71.62208-12.1596997-13.866294-10.7712693-35.039214 3.0950248-47.198056 6.7157492-5.889895 15.3199009-8.815118 24.2387864-8.228529 8.9137399.584873 17.0676594 4.606089 22.9584117 11.322696 37.8881117 43.204282 85.2593997 48.54961 103.8689967 48.842904 1.172319.017152 2.009322.047167 2.490427.073753 18.416641 1.00852 32.577087 16.810383 31.568567 35.224452-.969929 17.729715-15.628632 31.617448-33.372068 31.617448"/>
    <path fill="#FFF" d="M202.878831 303.810255s-46.752112 1.762338-75.566972-15.620913c0 0-2.350641-28.131365 26.552551-52.894994 0 0 20.014322 3.775948 25.763572 9.026084l37.275796 8.516678-14.024947 50.973145z"/>
    <path fill="#C7E3EF" d="M130.348396 270.2966s32.249489 13.454653 69.786848 20.443115l-4.180727 13.090179s-39.877709 5.232127-71.179567-19.252786l5.573446-14.280508z"/>
    <path fill="#000" d="M195.088356 312.686004c-25.400815-.331885-47.559099-4.937117-65.859109-13.689631-.570294-.272712-1.089133-.640616-1.536792-1.087418-.098622-.084901-.277-.209251-.450232-.339604-1.137158-.85244-3.420908-2.565895-3.72192-5.520275-3.213371-19.925134 5.5117-41.300443 23.969505-58.6957.923619-.903895 4.870226-4.412276 9.089545-2.980966 17.299207 5.859879 36.593158 9.304799 45.96399 9.568935l-.315591 11.144319c-11.483923-.324167-31.421062-4.353102-47.227214-9.490895-20.943944 19.815362-21.705479 38.78-20.658368 47.367.12435.095192.251272.195529.382483.301012 16.704043 7.840044 37.056254 11.969316 60.509492 12.275474l-.145789 11.147749z"/>
    <path fill="#FDD68A" d="M412.609424 295.839516c-13.272846 6.310112-29.314833 1.20748-36.425929-11.856114-7.359796-13.520688-2.36522-30.445988 11.153752-37.805784.385913-.210108 1.065121-.561718 2.028189-1.03682 17.346375-8.584427 59.449517-34.750208 75.724768-92.1844 4.197879-14.811352 19.606111-23.414647 34.414891-19.216767 14.809638 4.196164 23.41379 19.604396 19.216768 34.414034-22.361532 78.909839-80.622436 115.064771-104.633105 126.94747l-.461381.228118c-.337031.17752-.67835.349037-1.017953.510263"/>
    <path fill="#F6A87C" d="M497.710598 176.028354s-10.038034 34.540957-40.616947 52.112019l14.30452 27.093687s42.332975-61.211854 44.710201-78.540219l-18.397774-.665487z"/>
    <path fill="#000" d="M482.361111 140.40221c-.446802.212681-.888458.440798-1.324112.683495-5.200396 2.904641-8.958334 7.659093-10.583458 13.390334-16.883278 59.581585-60.602969 86.746452-78.616545 95.660192-.871306.431366-1.487052.748672-1.836089.938198-10.79614 5.877031-14.799347 19.444886-8.921459 30.243598 5.804994 10.661498 19.129294 14.801062 29.951161 9.078396.040307-.020582.081471-.042021.122635-.061746l.461381-.228975c23.346898-11.554245 79.992111-46.711805 101.744758-123.471678 3.352301-11.82953-3.544399-24.179613-15.373071-27.531913-5.249279-1.487911-10.742969-1.021384-15.625201 1.300099m-67.358167 160.471331c-16.023979 7.617929-35.22531 1.369563-43.714545-14.225622-8.816833-16.197211-2.813737-36.548564 13.384331-45.366254.425362-.231548 1.168889-.617462 2.223718-1.138873 16.676601-8.252542 57.164911-33.420093 72.831276-88.706892 2.436399-8.595576 8.073306-15.728111 15.873043-20.083786 7.794592-4.352245 16.829251-5.41222 25.424827-2.975821 17.742579 5.027164 28.088486 23.553576 23.059607 41.297013-22.968703 81.054659-82.846155 118.21125-107.524025 130.423263l-.398777.198102c-.385056.201532-.771827.394489-1.159455.57887"/>
    <mask id="b" fill="#fff">
      <use xlink:href="#a"/>
    </mask>
    <path fill="#3B729B" d="M191.535638 544.691771h91.016368v-111.631h-91.016368z" mask="url(#b)"/>
    <path fill="#5095B7" d="M213.825133 544.691771h68.726873v-111.631h-68.726873zM310.237427 544.691771h88.304684v-111.631h-88.304684z" mask="url(#b)"/>
    <path fill="#5095B7" d="M272.610365 483.76412s21.969616 13.936616 46.269291 0v-50.703864l-53.619654.42279 7.350363 50.281074z" mask="url(#b)"/>
    <path fill="#000" d="M315.517236 539.412477h73.520774V438.340065h-77.950201c-.264137.041164-.533418.066034-.807846.067749l-27.686278.217827c-.013722.000857-.0283.000857-.040307.000857-.590018 0-1.169746-.099479-1.71517-.286433h-79.800012v101.072412h76.234173v-51.438814c0-1.663716.78469-3.230524 2.117378-4.227038 1.331829-.997371 3.056433-1.308675 4.652399-.838718 5.758684 1.695446 14.686146 3.023845 24.52522-.259848 1.607972-.537706 3.378885-.268424 4.756167.722944 1.377282.993084 2.193703 2.587334 2.193703 4.283638v51.757836zm78.800926 10.558588h-84.08022c-2.91579 0-5.279294-2.363505-5.279294-5.280152v-50.251059c-6.355564 1.143161-12.20601.911613-17.126833.127781v50.123278c0 2.916647-2.364362 5.280152-5.278437 5.280152h-86.793619c-2.916647 0-5.280152-2.363505-5.280152-5.280152v-111.631c0-2.914932 2.363505-5.278436 5.280152-5.278436h86.793619c.585731 0 1.15088.094334 1.679152.271854l25.114381-.197244c.289864-.050598.586588-.07461.891031-.07461h84.08022c2.915789 0 5.279294 2.363504 5.279294 5.278436v111.631c0 2.916647-2.363505 5.280152-5.279294 5.280152z" mask="url(#b)"/>
    <path fill="#000" d="M296.011376 493.957977c-7.09909 0-13.302003-.989653-18.059028-2.113947-2.836891-.670632-4.593226-3.514384-3.923452-6.352133.671489-2.838607 3.512669-4.595799 6.352991-3.923452 7.47557 1.76834 19.076124 3.152483 31.873009-.278715 2.814595-.75639 5.712375.915043 6.46705 3.730495.755532 2.815452-.915044 5.712375-3.730496 6.46705-6.726897 1.804359-13.155356 2.470702-18.980074 2.470702" mask="url(#b)"/>
    <path fill="#FFF" d="M391.343199 301.653772c-.499972-52.37444-43.10566-94.679972-95.598446-94.679972-52.492786 0-95.097616 42.305532-95.597588 94.679972h-.012006v93.331848h191.220046v-93.331848h-.012006z" mask="url(#b)"/>
    <path fill="#000" d="M200.135244 348.801659c-2.914932 0-5.278436-1.533362-5.278436-3.426053v-52.923294c0-1.891833 2.363504-3.426053 5.278436-3.426053 2.91579 0 5.279294 1.53422 5.279294 3.426053v52.923294c0 1.892691-2.363504 3.426053-5.279294 3.426053" mask="url(#b)"/>
    <path fill="#C7E3EF" d="M237.785204 248.290022l32.140576 42.449607 74.442678-6.44218 14.626115-33.691947-20.537449-33.758839-81.455152 7.623932z" mask="url(#b)"/>
    <path fill="#FFF" d="M391.343199 301.653772s61.698963-21.994486 80.259678-50.065821c0 0-9.954849-26.416195-46.691223-36.371043 0 0-16.454486 12.004477-19.392573 19.214195l-24.068984 16.11574 9.893102 51.106929z" mask="url(#b)"/>
    <path fill="#C7E3EF" d="M456.023042 231.528177s-7.296335 43.832892-64.667923 62.625155l4.390836 13.661331s58.840632-25.025191 76.596932-60.578099l-16.319845-15.708387z" mask="url(#b)"/>
    <path fill="#FFF" d="M391.354862 278.530361l-1.046254 63.032507-30.893647-44.801105 26.346731-49.6396 9.341675-.378196z" mask="url(#b)"/>
    <path fill="#C7E3EF" d="M389.823987 254.273822l-21.398465 42.488198-9.430863-6.162606 25.443693-41.634901z" mask="url(#b)"/>
    <path fill="#5095B7" d="M295.881538 266.006187c-85.737932 0-74.124514 80.050428-99.495313 80.050428v52.680597h198.716198v-52.680597c-25.370799 0-14.32939-80.050428-99.220885-80.050428" mask="url(#b)"/>
    <path fill="#000" d="M201.66612 393.458861h188.157609v-42.983024c-3.644736-1.255505-6.876975-3.894295-9.786761-7.967824-3.253678-4.558065-5.853019-10.439384-8.862285-17.250325-5.207257-11.78665-11.110016-25.146969-22.214028-35.745006-12.850913-12.264325-30.213582-18.227115-53.079375-18.227115-23.147938 0-40.676978 5.982514-53.586207 18.289718-11.140031 10.620335-16.991334 23.991802-22.153139 35.788743-2.966387 6.780926-5.528852 12.636518-8.752514 17.173143-2.881486 4.056378-6.093143 6.684876-9.7233 7.937808v42.983882zm193.437761 10.558589H196.386825c-2.915789 0-5.279294-2.363505-5.279294-5.280152V346.0567c0-2.916647 2.363505-5.280151 5.279294-5.280151 5.220979 0 8.752514-7.465279 14.082406-19.644703 10.524285-24.054406 26.429916-60.404867 85.412049-60.404867 58.326081 0 74.349202 36.26556 84.951527 60.263365 5.419938 12.267756 9.009789 19.786205 14.271074 19.786205 2.914932 0 5.279294 2.363504 5.279294 5.280151v52.680598c0 2.916647-2.364362 5.280152-5.279294 5.280152z" mask="url(#b)"/>
    <path fill="#5095B7" d="M250.257837 296.197129l13.959771-9.033802c5.850446-3.786238 7.539031-11.670876 3.752792-17.521322l-25.136678-41.034591c-3.786238-5.850446-11.670876-7.539889-17.521322-3.75365l-13.959771 9.033802c-5.850445 3.786238-7.539031 11.670876-3.75365 17.521322l25.137536 41.034591c3.786238 5.851303 11.670876 7.539888 17.521322 3.75365" mask="url(#b)"/>
    <path fill="#000" d="M237.199817 289.622796c2.226291 3.383173 6.784356 4.345384 10.189826 2.142247l13.959771-9.034659c1.645706-1.064263 2.779434-2.719403 3.19622-4.660118.415071-1.939857.057458-3.914018-1.006805-5.559724-.024012-.036876-.047167-.073753-.070322-.110629l-25.098087-40.971987c-2.226291-3.383174-6.784356-4.346242-10.190684-2.142248l-13.958913 9.033802c-1.645706 1.065121-2.780291 2.72026-3.19622 4.660975-.415071 1.939858-.058316 3.914876 1.005947 5.560582.02487.036019.048025.072895.070322.110629l25.098945 40.97113zm6.201198 13.88173c-5.889037 0-11.664873-2.890062-15.096929-8.192511-.023155-.036876-.04631-.072894-.069464-.110628l-25.105805-40.983136c-2.568468-4.001492-3.430341-8.774811-2.429539-13.449508 1.005947-4.697851 3.771659-8.715638 7.785158-11.313263l13.959771-9.033802c8.308285-5.377916 19.444028-2.992972 24.820229 5.317028.02487.036018.048025.072895.070322.110628l25.105805 40.983137c2.568467 4.001492 3.431198 8.775668 2.429539 13.449507-1.005948 4.697852-3.77166 8.715638-7.784301 11.313263l-13.960628 9.033802c-3.005836 1.945861-6.383006 2.875483-9.724158 2.875483z" mask="url(#b)"/>
    <path fill="#5095B7" d="M340.34364 296.197129l-13.959771-9.033802c-5.851304-3.786238-7.539031-11.670876-3.752793-17.521322l25.136678-41.034591c3.785381-5.850446 11.670876-7.539889 17.521322-3.75365l13.958913 9.033802c5.851304 3.786238 7.539031 11.670876 3.752793 17.521322l-25.13582 41.034591c-3.786239 5.851303-11.670877 7.539888-17.521322 3.75365" mask="url(#b)"/>
    <path fill="#000" d="M352.23097 231.428097l-25.098086 40.97113c-.023155.037734-.045452.07461-.070322.110629-1.065121 1.645706-1.422734 3.620724-1.005948 5.560582.415929 1.940715 1.549657 3.594997 3.195362 4.660117l13.959771 9.03466c1.645706 1.065121 3.620725 1.421876 5.56144 1.006805 1.920991-.411641 3.562409-1.529074 4.628387-3.149053l25.098087-40.971987c.022297-.036877.047167-.073753.069464-.110629 2.214285-3.420907 1.23235-8.006415-2.189415-10.2207l-13.958913-9.033801c-1.645706-1.064264-3.620725-1.421877-5.560582-1.006805-1.921848.41164-3.563266 1.529074-4.629245 3.149052m-5.062325 72.074886c-3.420049 0-6.765489-.978505-9.693285-2.873768l-13.958913-9.033802c-4.014356-2.597625-6.77921-6.615412-7.785158-11.313263-1.001659-4.673839-.138929-9.447158 2.428681-13.44865l25.105805-40.984852c.023155-.036876.047167-.073752.069465-.109771 2.597625-4.013498 6.615411-6.778353 11.313263-7.7843 4.698709-1.005947 9.496898-.130353 13.508681 2.467273l13.960628 9.033801c8.289418 5.365053 10.682938 16.459632 5.353904 24.761914l-25.104947 40.983994c-.023155.036876-.045452.073752-.070322.110628-2.596768 4.013498-6.614554 6.778353-11.312406 7.7843-1.270941.271855-2.548743.406496-3.815396.406496" mask="url(#b)"/>
    <path fill="#FDD68A" d="M391.781167 174.372272c-8.586142 50.474888-56.46512 84.434402-106.940866 75.84826-50.476604-8.586143-84.433545-56.465121-75.84826-106.940867 8.586142-50.4757461 56.46512-84.4344025 106.940866-75.8491176 50.475747 8.587 84.434403 56.4659786 75.84826 106.9417246" mask="url(#b)"/>
    <path fill="#F6A87C" d="M391.266959 156.947085l-173.312811-29.480347 2.020471-11.872408 173.311953 29.481204z" mask="url(#b)"/>
    <path fill="#000" d="M315.047451 72.6357461c-47.524796-8.0844551-92.765842 24.0038081-100.850297 71.5294609-8.083598 47.524796 24.003808 92.765843 71.528603 100.850298 47.525654 8.084455 92.765842-24.003808 100.850297-71.528604 8.084456-47.525653-24.00295-92.7666998-71.528603-100.8511549M283.954844 255.424873c-25.803022-4.389978-48.351508-18.564145-63.493031-39.912012-15.140666-21.349582-21.063149-47.316403-16.67317-73.118567 4.38912-25.803022 18.56243-48.3523652 39.911155-63.4930308 21.348724-15.1423808 47.315544-21.0640062 73.117709-16.6748855 25.803021 4.3891208 48.351507 18.5632879 63.493888 39.9128703 15.142381 21.347867 21.063149 47.315545 16.674885 73.118566-4.38912 25.801307-18.564145 48.35065-39.912869 63.493031-21.349583 15.140666-47.315545 21.062291-73.118567 16.674028" mask="url(#b)"/>
    <path fill="#FCC031" d="M401.491861 115.217335l-2.261452-.385055c-3.510953-18.9269045-12.739427-37.0005113-26.013987-50.9251212-14.091839-14.7830526-31.874725-24.3545603-51.426808-27.6802755-20.152394-3.4277678-40.635815.0051455-59.235979 9.9299783-16.517947 8.8134025-30.541179 22.447291-39.83826 38.6505047l-3.329145-.5668638c-9.310802-1.5831022-18.173945 4.7029969-19.757904 14.0146563-1.58396 9.3108022 4.702997 18.1730872 14.012941 19.7570462l182.106489 30.976833c9.310802 1.58396 18.173944-4.702139 19.757904-14.012941 1.58396-9.310802-4.702997-18.174802-14.013799-19.758762" mask="url(#b)"/>
    <path fill="#F69B31" d="M267.812433 97.8336557l-4.07696 23.9660743s-60.661284-3.230523-58.902377-22.6599721c1.758907-19.4303065 62.979337-1.3061022 62.979337-1.3061022" mask="url(#b)"/>
    <path fill="#F69B31" d="M320.904757 41.4310529S267.81938 52.209183 260.276061 96.5514802l-34.739059-5.9087616s30.268467-60.284805 95.367755-49.2116657" mask="url(#b)"/>
    <path fill="#000" d="M230.217702 93.0846923l-9.3614-4.8839474c9.231047-17.6911238 24.038112-32.6216811 41.696647-42.043969 18.601879-9.9239753 39.083585-13.3577462 59.237694-9.9299784 19.551226 3.3257152 37.334111 12.8972229 51.426808 27.6811332 13.351743 14.0060804 22.611947 32.2100402 26.076591 51.2587213l-10.387929 1.88926c-3.099312-17.042789-11.386158-33.3317615-23.331461-45.8636532-12.509594-13.1236254-28.262576-21.6145758-45.554065-24.5560929-17.826622-3.032421-35.979127.0231548-52.497074 8.8356997-15.801006 8.4309195-29.048982 21.7886657-37.305811 37.6128267" mask="url(#b)"/>
    <path fill="#000" d="M217.615231 94.6503854c-3.570985-.6071702-6.969595 1.8035016-7.577623 5.3753436-.60717 3.570985 1.803502 6.970452 5.375344 7.577622l182.104774 30.976833c3.570127.60717 6.97131-1.803501 7.57848-5.374486.608028-3.5727-1.804359-6.971309-5.374486-7.57848L217.615231 94.6503854zM395.74767 148.988695L213.641181 118.01272c-9.309944-1.58396-15.596901-10.44796-14.013799-19.7579042 1.58396-9.3108019 10.44796-15.5969009 19.758762-14.0137988l182.105632 30.976833c9.310801 1.58396 15.597758 10.44796 14.012941 19.757904-1.58396 9.309944-10.447102 15.596901-19.757047 14.012941z" mask="url(#b)"/>
    <path fill="#000" d="M288.827385 101.408842l-4.162718-.708365 10.375923-61.001746 4.163576.7083653zM334.442768 109.168187l-4.163576-.708365 10.375923-61.0017465 4.164433.7083654z" mask="url(#b)"/>
    <path fill="#FDD230" d="M252.982213 274.951744c0 3.265684-2.648223 5.913049-5.913907 5.913049-3.264826 0-5.912192-2.647365-5.912192-5.913049 0-3.265685 2.647366-5.91305 5.912192-5.91305 3.265684 0 5.913907 2.647365 5.913907 5.91305" mask="url(#b)"/>
    <path fill="#000" d="M247.068735 271.150841c-2.095081 0-3.800817 1.704879-3.800817 3.800817s1.705736 3.801675 3.800817 3.801675c2.095938 0 3.801675-1.705737 3.801675-3.801675s-1.705737-3.800817-3.801675-3.800817m0 11.826099c-4.424282 0-8.023567-3.600143-8.023567-8.025282 0-4.424282 3.599285-8.024424 8.023567-8.024424 4.425139 0 8.024424 3.600142 8.024424 8.024424 0 4.425139-3.599285 8.025282-8.024424 8.025282" mask="url(#b)"/>
    <path fill="#3B729B" d="M294.451172 391.062854c-24.24136 0-42.539654-11.644291-52.915576-33.67308-7.596489-16.127746-8.171929-32.059106-8.193369-32.729737-.044594-1.427879.492254-2.812879 1.487053-3.838551.993941-1.025672 2.360932-1.604542 3.789669-1.604542h112.839337c1.445889 0 2.828316.593449 3.825687 1.641418.996514 1.047111 1.519641 2.458697 1.447604 3.90287-.034303.669774-.915043 16.590842-8.812545 32.702294-10.774699 21.980765-29.264235 33.599328-53.46786 33.599328" mask="url(#b)"/>
    <path fill="#FDD230" d="M350.282108 274.951744c0 3.265684-2.647365 5.913049-5.913049 5.913049-3.265685 0-5.91305-2.647365-5.91305-5.913049 0-3.265685 2.647365-5.91305 5.91305-5.91305 3.265684 0 5.913049 2.647365 5.913049 5.91305" mask="url(#b)"/>
    <path fill="#000" d="M344.369487 271.150841c-2.095938 0-3.800817 1.704879-3.800817 3.800817s1.704879 3.801675 3.800817 3.801675 3.800818-1.705737 3.800818-3.801675-1.70488-3.800817-3.800818-3.800817m0 11.826099c-4.425139 0-8.024424-3.600143-8.024424-8.025282 0-4.424282 3.599285-8.024424 8.024424-8.024424 4.42514 0 8.023567 3.600142 8.023567 8.024424 0 4.425139-3.598427 8.025282-8.023567 8.025282" mask="url(#b)"/>
    <path fill="#5095B7" d="M245.791533 324.704717c.759821 5.53657 2.563322 14.533495 6.783499 23.387204 8.648746 18.143072 23.194248 27.340672 43.234297 27.340672 20.180694 0 34.98004-9.31509 43.986399-27.687994 4.298217-8.768808 6.241505-17.566774 7.099948-23.039882H245.791533z" mask="url(#b)"/>
    <path fill="#000" d="M245.791533 324.704717c.759821 5.53657 2.563322 14.533495 6.783499 23.387204 8.648746 18.143072 23.194248 27.340672 43.234297 27.340672 20.180694 0 34.98004-9.31509 43.986399-27.687994 4.298217-8.768808 6.241505-17.566774 7.099948-23.039882H245.791533zm50.017796 61.287322c-24.240501 0-42.538796-11.644291-52.916433-33.673938-7.594774-16.126889-8.171929-32.059105-8.193369-32.729737-.042879-1.427022.493112-2.812022 1.487053-3.837693.993941-1.02653 2.362647-1.6054 3.791384-1.6054h112.83848c1.445888 0 2.829173.594307 3.825687 1.642276.996514 1.046254 1.519641 2.458696 1.446746 3.902012-.033446.670632-.914186 16.5917-8.812545 32.703152-10.774699 21.980765-29.263378 33.599328-53.467003 33.599328z" mask="url(#b)"/>
    <path fill="#000" d="M251.818127 331.516773c-.421932-1.970731-.569436-3.158486-.575439-3.208226-.036877-.300155.0566-.601167.257275-.82757.199817-.226402.487966-.356755.790694-.356755h3.167062v2.112232h-1.933855c.084901.484536.20239 1.105427.359328 1.837805l-2.065065.442514zM261.638935 329.236368h6.180616v-2.111374h-6.180616v2.111374zm12.362947 0h6.180616v-2.111374h-6.180616v2.111374zm12.36209 0h6.180616v-2.111374h-6.180616v2.111374zm12.36209 0h6.181474v-2.111374h-6.181474v2.111374zm12.362947 0h6.181474v-2.111374h-6.181474v2.111374zm12.36209 0h6.181474v-2.111374h-6.181474v2.111374zM339.504493 331.509226l-2.071069-.410783c.146648-.743526.255561-1.372994.333601-1.86096h-1.954436v-2.11309h3.167919c.29844 0 .584016.126923.785548.349895.199817.22383.295867.520554.264136.818136-.006003.050598-.134641 1.240926-.525699 3.216802M256.03899 344.40482c-.907325-2.021328-1.727177-4.145567-2.4364-6.312684l2.00675-.656911c.686925 2.096796 1.479334 4.150712 2.356644 6.104291l-1.926994.865304zm79.447545.002573l-1.938143-.838719c.850725-1.96387 1.613975-4.028077 2.269171-6.135164l2.01704.626895c-.677492 2.179124-1.468186 4.314511-2.348068 6.346988zm-72.445363 11.590263c-1.381569-1.718601-2.684241-3.595855-3.874569-5.580307l1.81122-1.08656c1.140588 1.902981 2.388374 3.70048 3.709055 5.343613l-1.645706 1.323254zm65.566672.078898l-1.655997-1.310391c1.30696-1.651709 2.537595-3.459498 3.657601-5.373628l1.823226 1.066836c-1.169746 1.998173-2.456124 3.888291-3.82483 5.617183zm-55.480613 9.021795c-1.898693-1.201477-3.723634-2.593337-5.423368-4.136133l1.417588-1.564235c1.611403 1.461325 3.338579 2.779433 5.13522 3.916591l-1.12944 1.783777zm45.418567.116632l-1.126867-1.78635c1.799214-1.135443 3.523817-2.453551 5.127502-3.918307l1.424448 1.55909c-1.695445 1.548799-3.520387 2.943232-5.425083 4.145567zm-32.842938 5.028021c-2.246873-.498256-4.437146-1.178322-6.507356-2.022185l.795839-1.955294c1.961297.798411 4.036653 1.443315 6.16861 1.915845l-.457093 2.061634zm20.241582.063462l-.443372-2.065065c2.13796-.459666 4.215889-1.092564 6.177186-1.880684l.788121 1.959582c-2.072784.832715-4.266486 1.500774-6.521935 1.986167zm-9.967712 1.017096c-1.194616 0-2.387517-.041164-3.545257-.12092l.144074-2.106229c2.122523.146647 4.380545.15265 6.503926.019725l.13121 2.106229c-1.056545.067749-2.14482.101195-3.233953.101195z" mask="url(#b)"/>
    <path fill="#D6702F" d="M191.536495 433.060771h208.418059v-34.322273H191.536495z" mask="url(#b)"/>
    <path fill="#C7E3EF" d="M272.610879 433.060771h46.269291v-34.322273h-46.269291z" mask="url(#b)"/>
    <path fill="#000" d="M277.890173 427.780619h35.710703v-23.763684h-35.710703v23.763684zm40.989997 10.559446h-46.270148c-2.914932 0-5.279294-2.364362-5.279294-5.280152v-34.322272c0-2.914932 2.364362-5.279294 5.279294-5.279294h46.270148c2.914932 0 5.278437 2.364362 5.278437 5.279294v34.322272c0 2.91579-2.363505 5.280152-5.278437 5.280152zM344.544263 430.314783h6.020248v-27.987291h-6.020248v27.987291zm9.188167 6.335839h-12.356086c-1.749474 0-3.166205-1.418446-3.166205-3.167919V399.16043c0-1.749473 1.416731-3.167919 3.166205-3.167919h12.356086c1.749474 0 3.16792 1.418446 3.16792 3.167919v34.322273c0 1.749473-1.418446 3.167919-3.16792 3.167919zM241.699223 430.314783h6.021105v-27.987291h-6.021105v27.987291zm9.189025 6.335839h-12.356945c-1.749473 0-3.166204-1.418446-3.166204-3.167919V399.16043c0-1.749473 1.416731-3.167919 3.166204-3.167919h12.356945c1.749473 0 3.167919 1.418446 3.167919 3.167919v34.322273c0 1.749473-1.418446 3.167919-3.167919 3.167919z" mask="url(#b)"/>
    <path fill="#000" d="M196.815789 427.780619h197.860329v-23.763684H196.815789v23.763684zm203.138765 10.559446H191.535638c-2.91579 0-5.279294-2.364362-5.279294-5.280152v-34.322272c0-2.914932 2.363504-5.279294 5.279294-5.279294h208.418916c2.91579 0 5.279294 2.364362 5.279294 5.279294v34.322272c0 2.91579-2.363504 5.280152-5.279294 5.280152zM191.535638 515.794582h91.016368v-6.334981h-91.016368zM307.307916 515.794582h91.016369v-6.334981h-91.016369z" mask="url(#b)"/>
    <path fill="#000" d="M396.635271 480.574933c-8.26026 0-15.068629-2.826601-20.234721-8.400047-12.396394-13.37404-10.688084-37.894972-10.608329-38.931793l6.316115.479391-3.157629-.239267 3.157629.236694c-.016294.22726-1.567666 22.829774 8.949758 34.160189 3.972335 4.27935 9.067248 6.358993 15.577177 6.358993v6.33584zM191.948822 480.574933v-6.33584c6.515932 0 11.614276-2.083074 15.588325-6.370142 10.536291-11.368149 8.954904-33.919207 8.937753-34.146467l6.316972-.479391c.078898 1.036821 1.788065 25.557753-10.608328 38.931793-5.166093 5.573446-11.974462 8.400047-20.234722 8.400047M282.34104 448.128542h2.111375v-6.334982h-2.111375v6.334982zm0 12.67082h2.111375v-6.334981h-2.111375v6.334981zm0 12.669963h2.111375v-6.335839h-2.111375v6.335839zm0 12.670821h2.111375v-6.334982h-2.111375v6.334982zM308.363604 448.128542h2.112232v-6.334982h-2.112232v6.334982zm0 12.67082h2.112232v-6.334981h-2.112232v6.334981zm0 12.669963h2.112232v-6.335839h-2.112232v6.335839zm0 12.670821h2.112232v-6.334982h-2.112232v6.334982zM391.354862 348.801659c-2.91579 0-5.279294-2.363505-5.279294-5.279294v-49.837703c0-2.914932 2.363504-5.279294 5.279294-5.279294 2.915789 0 5.279294 2.364362 5.279294 5.279294v49.837703c0 2.915789-2.363505 5.279294-5.279294 5.279294M310.865866 576.838864h85.850275c5.205542 0 9.220756-4.624956 8.439496-9.771325-2.330917-15.364495-11.894706-43.44269-50.669561-43.44269-38.473842 0-49.077025 27.645972-51.999675 43.083362-.995656 5.260427 3.027276 10.130653 8.379465 10.130653" mask="url(#b)"/>
    <path fill="#000" d="M354.486248 526.793283c-15.900486 0-28.335471 4.940548-36.960205 14.68443-7.401817 8.362313-10.571452 18.656765-11.927294 25.819316-.298439 1.582245.116632 3.198793 1.141446 4.434573 1.021384 1.233207 2.525588 1.939857 4.1267 1.939857h85.849418c1.56938 0 3.056433-.683495 4.08039-1.873823 1.026529-1.193759 1.462182-2.705681 1.227204-4.253622-1.089133-7.180561-3.87457-17.506743-10.95908-25.917938-8.289418-9.843363-20.595765-14.832793-36.578579-14.832793m42.230065 53.213158h-85.849418c-3.49466 0-6.777496-1.541938-9.004644-4.23304-2.233152-2.692818-3.138762-6.213205-2.487855-9.653836 1.503347-7.945527 5.050319-19.399434 13.407486-28.840589 9.880239-11.16147 23.911189-16.821532 41.704366-16.821532 17.938108 0 31.875582 5.748393 41.423935 17.086526 8.035572 9.540635 11.165758 21.064006 12.377526 29.048124.508548 3.354873-.469957 6.757771-2.686814 9.33653-2.228864 2.590764-5.466248 4.077817-8.884582 4.077817M194.857408 576.838864h85.849418c5.206399 0 9.220755-4.624956 8.439495-9.771325-2.330916-15.364495-11.894706-43.44269-50.66956-43.44269-38.472985 0-49.077025 27.645972-51.998817 43.083362-.996514 5.260427 3.026418 10.130653 8.379464 10.130653" mask="url(#b)"/>
    <path fill="#000" d="M238.476933 526.793283c-15.900487 0-28.335471 4.940548-36.960205 14.68443-7.401817 8.362313-10.571452 18.656765-11.927294 25.819316-.29844 1.582245.117489 3.198793 1.141446 4.434573 1.021384 1.233207 2.525588 1.939857 4.1267 1.939857h85.849418c1.56938 0 3.057291-.683495 4.08039-1.873823 1.026529-1.193759 1.462182-2.705681 1.228062-4.253622-1.089991-7.180561-3.876285-17.506743-10.959939-25.917938-8.289418-9.843363-20.594907-14.832793-36.578578-14.832793m42.230065 53.213158H194.85758c-3.493802 0-6.777496-1.541938-9.004644-4.23304-2.233152-2.692818-3.138762-6.213205-2.487855-9.653836 1.503347-7.945527 5.050319-19.399434 13.407486-28.840589 9.880239-11.16147 23.911189-16.821532 41.704366-16.821532 17.938108 0 31.875582 5.748393 41.424792 17.086526 8.034715 9.540635 11.164901 21.063149 12.376669 29.048124.508548 3.354016-.469957 6.757771-2.686814 9.335672-2.228007 2.591622-5.466248 4.078675-8.884582 4.078675M395.745698 310.387676l-4.918251-10.005446c34.971464-2.623353 59.698217-25.430829 74.543016-44.641594.072037-.15265.144074-.297582.215253-.436511-2.741699-8.205375-11.571396-25.005467-38.995253-33.908916-12.069654 11.427322-28.344904 23.625613-38.576753 28.850021l-5.070043-9.929978c8.349449-4.262198 24.296244-15.656932 37.403576-28.37835 3.200507-3.104458 8.265405-1.628554 9.487464-1.209195 24.140164 7.7843 41.196675 23.34261 46.849876 42.718031.997372 2.797443-.33017 5.324746-.990511 6.583681-.100337.192099-.208393.380768-.284718.561718-.210966.595165-.469956 1.114861-.897891 1.58053-26.238675 28.567876-44.517245 43.904071-78.765765 48.216009z" mask="url(#b)"/>
    <path fill="#F69B31" d="M520.383777 156.704217s10.92049 2.026474 7.304911 11.40674c-3.617295 9.381981-27.246338 8.857997-36.925901 4.58465-18.554712-8.190796-35.248465-20.140387-33.101072-30.578056 2.148251-10.436811 15.587468-11.051699 21.011694-6.133449 5.423368 4.918251 25.421396 14.689576 25.421396 14.689576l14.390279 8.693341 1.898693-2.662802z" mask="url(#b)"/>
    <path fill="#000" d="M409.295543 14.0775173l-.597737.5008298c-2.46813 2.0676377-2.795727 5.777551-.72809 8.2456811l35.582065 42.471904c2.066781 2.4672724 5.777552 2.79487 8.245682.7272322l.597736-.5008297c2.46813-2.0667802 2.795728-5.7775511.727233-8.2448236l-35.582065-42.471904c-2.066781-2.46813-5.777552-2.7957275-8.244824-.7280898" mask="url(#b)"/>
    <path fill="#000" d="M423.184392 23.8204563l-7.176273 6.0125295c-1.384142 1.1594551-14.86195-6.571675-16.022263-7.956675l-4.124127-8.7962507c-1.167173-1.3927183-.984508-3.46721676.408211-4.63353255L405.43581.7685678c1.39186-1.16717337 3.466359-.98365015 4.632675.40821053l8.538117 5.10005882c1.160313 1.38414242 5.961932 16.38416405 4.57779 17.54361915" mask="url(#b)"/>
    <path fill="#FFC20E" d="M474.976188 63.3890916l-29.914285 25.0620682c-2.46813 2.0667801-6.178043 1.7391826-8.245681-.7280898l-2.921793-3.4877988c-2.06678-2.4672724-1.74004-6.1780433.727233-8.2456811l29.915142-25.0612105c2.467272-2.0667802 6.177186-1.7400403 8.244824.7280897l2.92265 3.4877988c2.06678 2.4672725 1.739182 6.1771858-.72809 8.2448235" mask="url(#b)"/>
    <path fill="#FFC20E" d="M517.619266 127.599578l-16.810384 14.082406c-2.467272 2.067638-6.178043 1.74004-8.244823-.727232l-43.307192-51.6926597c-2.066781-2.4672725-.110629-4.2330403 2.356644-6.3006781l16.810383-14.0832631c2.467273-2.0667802 4.548632-3.6833282 6.61627-1.2160557l43.307192 51.6926596c2.06678 2.467272 1.739182 6.177186-.72809 8.244823" mask="url(#b)"/>
    <path fill="#BA5C15" d="M490.106991 121.404641c-1.613117 1.351554-4.038368 1.137157-5.389922-.47596l-25.161548-30.0334894c-1.351554-1.6131176-1.137158-4.0383684.475959-5.3899226 1.613118-1.3515541 4.038369-1.1380154 5.389923.4751022l25.161548 30.0343468c1.351554 1.613118 1.137158 4.038368-.47596 5.389923M498.332776 114.513858c-1.613117 1.351554-4.039226 1.137158-5.389922-.47596l-25.162406-30.0334887c-1.351554-1.6131177-1.137158-4.039226.47596-5.3899226 1.613118-1.3515542 4.039226-1.1380155 5.389923.4751022l25.162405 30.0343471c1.350697 1.613117 1.137158 4.038368-.47596 5.389922" mask="url(#b)"/>
    <path fill="#000" d="M474.976188 63.3890916h.008576-.008576zm-6.687449-9.5312012c-.35504 0-.711796.1166316-.998229.357613l-29.915143 25.0612105c-.650049.5445666-.739238 1.5539443-.193814 2.2048514l2.921793 3.4877988c.542851.6500495 1.554802.7383808 2.204851.1946718l29.914285-25.0620681c.65005-.5445666.738381-1.5539443.194672-2.2048514l-2.92265-3.4869412c-.303585-.3636161-.753818-.5522848-1.205765-.5522848zm-26.977056 40.2430403c-2.899495 0-5.778408-1.2332075-7.781727-3.6241548l-2.92265-3.4877988c-3.590709-4.2862105-3.025561-10.6949443 1.26065-14.2856533l29.915142-25.0620681c4.287068-3.590709 10.694087-3.0238452 14.284796 1.2606502l2.923508 3.4886563c3.589851 4.2862106 3.023845 10.6949443-1.261508 14.2856533L447.815609 91.737426c-1.895263 1.5882477-4.205598 2.3635047-6.503926 2.3635047z" mask="url(#b)"/>
    <path fill="#000" d="M517.619266 127.599578h.008576-.008576zm-64.433802-40.3245105l42.665718 50.9259785c.356756.425362.818137.5257 1.061691.547139.248699.023155.716941.004288 1.143161-.352467l16.809526-14.083264c.65005-.544566.739238-1.554801.194672-2.203993l-42.665718-50.9268362c-.449375.3396037-.939056.7512445-1.216914.9836501l-16.810384 14.0832632c-.277.2324056-.767538.6440464-1.181752 1.0265294zm43.887777 60.0558295c-.303585 0-.608028-.013721-.913328-.040306-2.703966-.238409-5.147226-1.511065-6.882978-3.582991l-43.307192-51.6918019c-4.881375-5.8290061.764966-10.5594458 2.890062-12.3406501l16.810384-14.0832632c1.610544-1.349839 3.089879-2.5152972 4.883947-3.0993127 2.871195-.9347678 5.704656-.0531702 7.773152 2.4158174l43.307192 51.6926595c3.589851 4.285353 3.024702 10.694087-1.261508 14.285653l-16.810384 14.082406c-1.83609 1.539365-4.112978 2.361789-6.489347 2.361789z" mask="url(#b)"/>
    <path fill="#000" d="M464.315804 137.773711c-2.515297 1.195474-2.80173 3.033279-2.79487 4.322229.031731 5.694366 17.673973 23.207112 37.246638 29.28396 11.976177 3.718489 20.638644 1.878969 25.752424-5.472251.361901-.521412.937341-1.48448.711796-2.077071-.335316-.885885-1.816365-1.845523-3.37717-2.541882l-2.302616 3.23138-17.306069-10.45482c-2.722832-1.334402-20.618061-10.194115-26.164065-15.222136-2.117377-1.920133-7.762003-2.859189-11.597123-1.147449-.057459.02487-.114059.051455-.168945.07804m57.119459 40.641817c-6.717465 3.193648-15.235 3.354874-24.956586.336174-20.280173-6.29639-42.614263-25.458273-42.675151-36.61374-.028301-5.151514 2.688529-9.330526 7.534743-11.489926 6.353848-2.836891 15.292458-1.724603 19.928563 2.477564 4.115551 3.73221 19.096706 11.429894 24.52179 14.08069l.30187.164656 11.328699 6.842672 1.33526-1.873823 2.536737.613173c1.481907.358471 8.990923 2.435542 11.156325 8.136768.77783 2.047056 1.13287 5.307594-1.59082 9.225043-2.517013 3.61901-5.691793 6.328121-9.42143 8.100749" mask="url(#b)"/>
    <path fill="#F69B31" d="M498.597427 76.7612452c-20.157538 9.5320588-40.610086 25.0963718-20.297325 57.1734858 20.315335 32.077972 42.862963 38.227715 60.144161 26.640883 17.281198-11.585118 12.550759-30.860202 2.409814-48.195428-10.140944-17.3360832-25.774721-43.4126745-42.25665-35.6189408" mask="url(#b)"/>
    <path fill="#FCC031" d="M503.053697 74.6428384c-15.876474 7.5021548-31.783821 20.185839-14.338824 48.4878636 17.443282 28.302025 35.785313 34.373728 49.278558 25.003752 13.493244-9.370832 9.020938-26.117755.267566-41.383628-8.753371-15.2658731-22.225176-38.2422941-35.2073-32.1079876" mask="url(#b)"/>
    <path fill="#000" d="M500.009441 80.3628455c-14.758182 7.015904-22.82034 14.3782725-25.366511 23.1565135-2.300901 7.930948.027443 17.469867 6.917282 28.350908 10.731821 16.945024 22.61109 27.211176 34.354003 29.686167 7.136824 1.505062 13.994074.096907 20.382226-4.186731 12.585062-8.436923 12.998418-22.918105 1.227205-43.04134-8.279985-14.154443-23.692505-40.5020314-37.276654-34.0778611-.07804.0368761-.158653.0746099-.237551.1123436m35.744149 86.1804455c-6.780926 3.222805-14.094412 4.112979-21.432768 2.565037-13.826845-2.914931-27.408421-14.363693-39.279972-33.109647-8.126477-12.830331-10.75326-24.481483-7.810886-34.629288 4.231325-14.5892379 18.997226-23.0253029 29.718756-28.0970614 19.974873-9.4454427 37.040817 19.7278885 47.237504 37.1591644 17.691124 30.243597 7.810886 45.704142-3.592424 53.349514-1.577956 1.057402-3.192789 1.978449-4.84021 2.762281" mask="url(#b)"/>
    <path fill="#FCC031" d="M448.428697 108.050496c-14.645839 13.134774 14.30452 48.814604 30.136399 37.424158 15.566028-11.198347-13.561851-52.2886809-30.136399-37.424158" mask="url(#b)"/>
    <path fill="#000" d="M451.005654 110.923149c-5.385634 4.830777-2.061634 14.994876 4.004923 22.538195 6.129161 7.620502 15.419381 13.109904 21.301557 8.880294 2.327486-1.674863 3.227093-4.576074 2.673951-8.623018-1.312963-9.612672-10.152093-21.17292-18.543564-24.254223-3.730495-1.368706-6.817802-.891889-9.436867 1.458752m27.325235 39.15991c-9.84765 4.683273-21.831544-2.455266-29.333699-11.784077-8.088743-10.056901-12.522458-24.710458-3.145623-33.120796 4.743304-4.251907 10.867319-5.3033061 17.251183-2.958668 11.053415 4.05895 21.82983 18.005 23.531279 30.453706.943343 6.899272-1.122579 12.557619-5.815285 15.933931-.80956.583158-1.641418 1.072839-2.487855 1.475904" mask="url(#b)"/>
    <path fill="#F69B31" d="M36.2275693 212.278993s-10.4539628 3.754508-5.3779164 12.432412c5.0769041 8.678761 28.314031 4.365108 37.1823189-1.407298 16.9973375-11.064563 31.5548452-25.5406 27.7591734-35.498021-3.7965294-9.955706-17.1611362-8.403477-21.7243467-2.678239-4.562353 5.725239-22.7311518 18.582155-22.7311518 18.582155l-12.8071764 10.892189-2.300901-2.323198z" mask="url(#b)"/>
    <path fill="#99B2BA" d="M16.1848613 240.492172l58.3903994-110.396078 3.2296656-11.812377s-12.0876625-17.095102-2.4278235-31.9467619c9.659839-14.8508018 24.3554179-12.4161176 24.3554179-12.4161176L88.3669449 94.5491904l19.4105821 11.2695266 14.455455-24.6195545s20.928508 33.5427275-18.634467 44.7024835l-4.1961645 2.184269 1.9355695 6.202913-10.1906841-4.041799-55.8665263 119.097994-19.0958483-8.852851z" mask="url(#b)"/>
    <path fill="#000" d="M28.9071368 243.54689l51.5983251-102.028619c.6123158-1.211768.1252074-2.689387-1.0865604-3.301703-1.2126253-.612316-2.6911021-.125207-3.3034179 1.087418L24.5163009 241.33089l-3.9457492-1.99217 58.7368638-116.168483c.8953189-1.775201.2238297-3.93117-1.5024892-4.88652l1.9450031-3.847127c.5728669-1.135443.518839-2.484424-.1380712-3.5727-4.235613-6.991892-4.5735015-15.5094272-.8987492-22.7851795 2.825743-5.6000309 7.6668111-9.7636068 13.6244551-11.724904.8507244-.2795728 1.7100248-.5094056 2.5753282-.690356L85.5489201 94.213017c-.9124706 1.8069319-.1981021 4.0143561 1.6028266 4.9396904.0094335.0051455.1097709.0574582.1183468.0617462l18.8668735 9.5226254c1.820653.919331 4.034938.190384 4.953411-1.630269l9.596378-19.0058023c3.316282 6.5553808 3.404613 14.3731273-.020582 21.1557683-2.826601 5.599173-7.665954 9.762749-13.624455 11.723188-1.875539.617462-3.825687.997372-5.792988 1.12944-1.297526.083186-2.4561236.855012-3.0418542 2.018755l-1.6817245 3.326573-9.4171424-4.754452c-1.213483-.613173-2.6919597-.126065-3.3034179 1.087418-.6123158 1.212626-.1269227 2.68853 1.0857027 3.302561l6.2569412 3.15677-58.2977802 115.291174-3.9423189-1.991313zm-14.9528544.714369l18.8643003 9.523482c.911613.458809 1.9192755.505976 2.8145944.211824.8987492-.296724 1.6808669-.932195 2.1388173-1.842093l58.7420093-116.172771c1.792353.820709 3.9268823.082328 4.8239163-1.692873l2.545313-5.037455c1.850669-.256418 3.684186-.680065 5.463675-1.265796 7.83061-2.577043 14.190461-8.046721 17.903805-15.404801 5.672925-11.238654 4.006637-24.6452822-4.245904-34.1541862-.805273-.9279071-2.019613-1.395291-3.241672-1.2434985-1.218629.1517926-2.282034.9004644-2.833461 1.9964582l-10.760979 21.3118485-12.3740958-6.2466503 10.6340558-21.0648638c.561718-1.1122879.520554-2.4321115-.10291-3.510096-.623465-1.0788421-1.752047-1.7674829-2.996403-1.833517-3.8334053-.2015325-7.6350802.3053003-11.2978264 1.5102074-7.8297523 2.5770434-14.1896037 8.0492941-17.9029473 15.4065171-4.5134706 8.9394674-4.4251393 19.2999536.1483622 28.1133556l-2.7159721 5.383062c-.8961765 1.775202-.2203994 3.931171 1.5024891 4.885663L12.3248706 239.306989c-.9201889 1.817223-.1903839 4.038369 1.6294118 4.95427z" mask="url(#b)"/>
    <path fill="#000" d="M88.5276563 105.163693l12.3775267 6.245793c1.211767.611458 1.698018 2.090792 1.08656 3.303418-.307873.606312-.831 1.030817-1.428737 1.227204-.5977367.197245-1.2666531.165514-1.8746809-.139786l-12.374096-6.24665c-1.2126254-.612316-1.6988762-2.091651-1.087418-3.303418.6123158-1.212626 2.0882199-1.698019 3.3008452-1.086561M88.3467916 184.537657c-4.059808-1.073696-9.4814613.760678-11.2626656 2.995545-4.6652632 5.853876-20.9053529 17.473297-23.3786285 19.227059l-15.4022291 13.099613-2.7914396-2.820598c-1.4287368.938199-2.7365542 2.123381-2.9260805 3.052146-.1269226.620892.5960217 1.479334 1.0368204 1.93557 6.2277833 6.434461 15.073774 6.858966 26.2978483 1.26408 18.342031-9.141857 32.9415604-29.260805 32.0573901-34.885706-.1998173-1.274371-.7778297-3.041854-3.4517802-3.817969-.0591733-.016294-.1192043-.033446-.1792353-.04974m-60.270226 42.85696c-3.3171393-3.428625-3.4912291-6.704601-3.0521455-8.849421 1.2212013-5.974796 8.2988514-9.231046 9.705291-9.823638l2.4038112-1.01195 1.6191207 1.635415 10.0834861-8.574137.2701393-.210966c4.9293994-3.487798 18.4792446-13.492387 21.9421734-17.83777 3.9002972-4.891666 12.5447554-7.424973 19.2716532-5.646341 5.1300743 1.353269 8.4832322 5.041743 9.2825016 10.131511 1.7314644 11.019111-17.2348886 33.52043-36.2398328 42.992458-9.110127 4.540913-17.5436192 5.750108-24.6864458 3.677325-3.9663313-1.150879-7.5347431-3.315424-10.5997524-6.482486" mask="url(#b)"/>
    <path fill="#F69B31" d="M44.8888362 129.87458c21.4259071 6.169468 44.1141796 18.245982 29.2170681 53.170279-14.897969 34.924297-36.1660805 44.616724-55.083551 35.955972-18.91832822-8.659037-17.34465949-28.443526-10.12036228-47.182619 7.22515478-18.739951 18.46723838-46.988805 35.98684518-41.943632" mask="url(#b)"/>
    <path fill="#FCC031" d="M40.1503353 128.499014c16.8747028 4.854789 34.6129938 14.818213 21.9413158 45.554922-12.6708204 30.735852-29.7985109 39.676177-44.62187 32.595096-14.82335912-7.081938-13.09961299-24.32969-6.9121362-40.803043 6.1883344-16.474211 15.7941455-41.316737 29.5926904-37.346975" mask="url(#b)"/>
    <path fill="#000" d="M43.821057 133.58295c-14.439161-4.15843-25.4196811 24.321972-31.3190093 39.623006-8.38546751 21.752647-5.6506285 35.979127 8.1264768 42.285808 6.9918916 3.202223 13.9872136 3.490372 20.7895789.858443 11.1923437-4.329948 21.2681115-16.370443 29.1390279-34.818814 5.052034-11.847539 5.8178576-21.636016 2.2734582-29.094434-3.9225945-8.255972-13.0635945-14.22648-28.7565449-18.781114-.0840434-.024013-.1689443-.048883-.2529876-.072895m-26.4050465 88.927291c-12.48386685-5.71409-24.71817644-19.388285-12.11510524-52.080288 7.26460374-18.842861 19.42258824-50.378839 40.65468114-44.264257 11.3973065 3.283693 27.3269504 9.237907 33.8463127 22.959269 4.5349102 9.54235 3.8128235 21.464499-2.1465356 35.433703-8.7053468 20.408811-20.2733127 33.890907-33.4526811 38.989251-6.9936069 2.706539-14.3559753 3.002405-21.564836.910755-1.7520464-.508548-3.4946594-1.158597-5.2218359-1.948433" mask="url(#b)"/>
    <path fill="#FCC031" d="M99.4326232 152.698523c16.5651148 10.612616-6.2775232 50.478318-23.7336687 41.778975-17.1628514-8.552697 4.9868576-53.788598 23.7336687-41.778975" mask="url(#b)"/>
    <path fill="#000" d="M97.350578 155.947998c-2.9620991-1.899551-6.0879969-1.874681-9.5492105.075468-7.7877307 4.389978-14.6552725 17.219452-14.4074303 26.91874.1046253 4.082963 1.4587523 6.801508 4.0255046 8.081025 6.4842012 3.230523 14.771904-3.681613 19.5975356-12.186285 4.7776066-8.419771 6.4258856-18.986078.3336006-22.888948m-23.373483 41.983939c-5.1746687-2.578759-8.1213312-7.832326-8.2988513-14.793344-.3198793-12.560192 8.0750216-28.056756 18.3334551-33.838595 5.9241981-3.339436 12.1391176-3.285408 17.5015972.14922 10.608328 6.794647 8.584428 21.971332 2.216 33.196263-5.9061886 10.412799-16.5865539 19.38314-27.0593836 16.343-.8996068-.261563-1.8000712-.611458-2.6928174-1.056544" mask="url(#b)"/>
    <path fill="#FFF" d="M271.720106 178.155166c-3.089022-.488824-5.693508 2.264024-5.058895 5.325603 1.732322 8.37775 7.199427 22.587935 24.415449 25.996836 17.456145 3.456068 27.865514-9.171015 32.502477-16.957888 1.606256-2.697963-.04974-6.163465-3.150768-6.654861l-48.708263-7.70969z" mask="url(#b)"/>
    <path fill="#000" d="M271.009939 181.958213c-.159511 0-.298439.060888-.413356.182665-.148362.155223-.201532.343034-.15608.558288 1.845523 8.923174 7.054495 20.155824 21.3856 22.992715 1.769199.349895 3.460356.512836 5.070044.512836 11.453907.001716 18.940625-8.225099 23.368337-15.659504.036876-.060889.147505-.2487.020582-.521412-.063461-.134641-.195529-.3053-.459665-.347322l-48.708264-7.70969h-.000857c-.036019-.006004-.072037-.008576-.106341-.008576m25.808168 31.946761c-2.442403 0-4.644682-.276142-6.491062-.642331-19.455177-3.851415-25.546604-19.822223-27.445298-29.000099-.554857-2.685099.240982-5.469678 2.130242-7.449842 1.882399-1.973304 4.608662-2.896923 7.311771-2.468988l48.707405 7.709691c2.733982.432223 5.066613 2.187699 6.241505 4.693563 1.168889 2.492143 1.028245 5.388208-.377337 7.747424-9.431722 15.83874-21.298127 19.410582-30.077226 19.410582M326.746284 170.980437c2.508437 0 4.704712-1.836948 5.083765-4.393409.964783-6.524508-1.339548-16.813814-11.642576-18.417498-3.747647-.584016-7.164266.252987-9.889672 2.414102-5.131789 4.071814-5.82043 11.369864-5.882176 12.188857-.212681 2.833462 1.910699 5.304165 4.745018 5.516846 2.83775.213538 5.304164-1.909842 5.517703-4.744161.126923-1.420161.861873-3.997205 2.026474-4.90796.189526-.147505.638901-.495684 1.899551-.29844 3.907158.608028 3.082161 6.49192 3.045285 6.742335-.415929 2.811164 1.525644 5.426798 4.336808 5.843585.254703.037734.509405.055743.75982.055743M290.024146 165.26669c2.329201 0 4.439718-1.591678 5.001436-3.95604.190384-.798412 1.751189-7.960963-1.901266-13.39891-1.939-2.888347-4.943121-4.722722-8.687338-5.305022-10.30217-1.600254-15.625201 7.497867-16.689464 14.007796-.457951 2.804303 1.444173 5.449953 4.249334 5.907904 2.800016.458808 5.431087-1.430452 5.902759-4.219319.185238-1.035106 1.28209-6.101719 4.955127-5.527994 1.272656.198102 1.59082.671489 1.726319.873879.940771 1.399579.641473 4.402842.43308 5.280152-.657768 2.763997 1.050542 5.539142 3.814539 6.196053.400492.096049.800984.141501 1.195474.141501" mask="url(#b)"/>
  </g>
</svg>
