<svg xmlns="http://www.w3.org/2000/svg" xmlns:xlink="http://www.w3.org/1999/xlink" width="70" height="70">
  <defs>
    <path id="a" d="M0 37.9865037V.16936088h35.107411V37.9865037z"/>
  </defs>
  <g fill="none" fill-rule="evenodd">
    <path fill="#FFC20E" d="M35.95749484 10.60373624c-9.00543512.01121506-16.32276045 7.34781342-16.311686 16.35404609.00819975 6.44204135 3.7000915 12.15021979 9.49054576 14.80982022l.00241973 1.87967609c.00084813.81286461.66031069 1.47214341 1.47486405 1.47104483l10.7748695-.01333798c.81397487-.00092642 1.47211198-.66168675 1.47131072-1.47481716l-.00237286-1.87994189c5.78441052-2.67386294 9.46143507-8.39099572 9.45328222-14.83330297-.01112134-9.00596675-7.34673465-16.3242148-16.35323312-16.31318723"/>
    <g transform="rotate(10 -25.5106642 127.60510107)">
      <mask id="b" fill="#fff">
        <use xlink:href="#a"/>
      </mask>
      <path fill="#000" d="M25.0298724 30.0082699c-.5574233.3393129-.849227.9863559-.7353129 1.6288099l.2594111 1.4598282-8.2819878 1.4711656-.259411-1.4600981c-.1141841-.642454-.6108712-1.1491289-1.2511657-1.276-5.86306745-1.1610062-10.32731285-5.7121718-11.37224536-11.5946749C2.00194601 12.4271656 7.22687853 4.94554601 15.0353939 3.55860123 22.844719 2.1713865 30.3263387 7.39631902 31.7138233 15.206454c1.0443927 5.8811534-1.5786012 11.6915828-6.6839509 14.8018159M14.4817497.44161963C4.95426503 2.13386503-1.42006626 11.2626503.27217914 20.7909448 1.482854 27.6063558 6.45458405 32.9576196 13.0786086 34.6917055l.3530797 1.9883681c.1527853.8602945.9736688 1.4349939 1.8353129 1.2816687l11.3992393-2.0245398c.8611043-.1530553 1.434454-.9750185 1.2819386-1.8353129l-.3533497-1.9886381c5.6220123-3.9089816 8.4463804-10.6450306 7.2359755-17.4604417C33.1382896 5.12451534 24.0100442-1.25089571 14.4817497.44161963" mask="url(#b)"/>
    </g>
    <path fill="#FFD886" d="M47.853924 24.17087676c-.12874139-.56789125-.69227453-.92244715-1.26249605-.7960354-.56776597.12958577-.9239792.69474544-.79533156 1.26316839.16316432.72088007.2470051 1.46724412.24807917 2.21820126.00027214.3824215-.02156576.77053805-.06462444 1.14997894-.0660174.57959922.3504096 1.10310351.92935203 1.16818281.04126708.00535775.0823929.0068532.12211121.007004.52808132-.00090225.984974-.39864934 1.0455399-.93644978.0520701-.46008281.07869745-.9282151.07785114-1.39132413-.00111164-.9077507-.1022686-1.80929511-.3004814-2.68272609"/>
    <path fill="#FFF" d="M45.74540075 19.59695285c-1.81243103-2.42935042-4.4377449-4.08981961-7.39491623-4.67347007-.56883166-.11153858-1.12700983.2590296-1.23964252.83095754-.11280484.5713494.2588575 1.12643125.83095754 1.23964256 2.4425237.48194007 4.61292926 1.85579718 6.11238733 3.86513106.20651127.27762403.52488793.4244905.8478415.4241485.2187946-.00034324.43889322-.06870813.62803588-.21023486.46761107-.34816317.5636404-1.00936118.2153365-1.47617473"/>
    <path fill="#BA5C15" d="M41.46379929 26.34528348c-.54481139-.21201042-1.1553102.05421849-1.36871287.59604334L35.9908389 37.36649809l-3.5571008-8.9722753 4.40281977-.00567955c.58257666-.00061283 1.05456425-.47463988 1.05385766-1.05668485-.00061281-.58257677-.47410818-1.0544705-1.05668483-1.05385777l-5.95345953.00745933c-.02742754.00009764-.05291515.0062935-.08031117.00776721-.0386858.00332043-.07735618.00499899-.11696404.01199433-.04126516.00862176-.0791991.02166842-.11800873.0334643-.024127.00780629-.0487864.0108589-.07208437.02018189-.0037057.00236169-.00603524.00469197-.0099914.00536491-.04184238.01811364-.0806193.0406052-.11925561.06229925-.0227503.01243476-.0459232.0226021-.06678106.03674097-.03285088.01997314-.06044658.04745145-.0900129.07211532-.0224993.0187833-.04809473.03647243-.06896751.05691305-.02781463.02716565-.04892042.05825519-.07288817.08692133-.0184641.02388044-.0402749.04497796-.05642483.0681701-.02506132.03642238-.0443987.07769145-.0642992.1174907-.01027064.02093954-.02340325.03945569-.03242311.05951942-.0148348.0343881-.02343016.07069867-.03402703.10747871-.0095502.0292897-.02163358.05895493-.0279154.0899174-.0061418.02550496-.00693548.05332346-.00980891.08050129-.00577963.04365966-.01273247.08464548-.01314845.12897684.00001598.00301792-.00082776.007803-.00081167.01082095-.00010593.0254729.0054799.04975659.00795407.07458797.00236695.04098466.0037174.08151583.01185434.12242144.00769908.04028018.02087093.07905837.03333902.11716435.00771253.02465869.01165651.04892694.02101092.07360097l5.05255086 12.74228773c.16421637.41489263.56249793.66822112.98251106.6677248.0200155-.00003407.04017108-.00552551.0608588-.00626334.02045344.00059139.04059485.00606151.06087625.00607434.41974733-.0005432.81733273-.25470186.98051083-.67024989l5.02155656-12.7547462c.21327739-.54266924-.05271713-1.15449735-.59537102-1.36941661"/>
    <path fill="#99B2BA" d="M40.69200168 50.71544575l-9.36651198.01168753c-1.18929703.0013541-2.1634533-.97024818-2.16458847-2.15923254-.00166678-1.1890781.9699355-2.16323436 2.15896674-2.16463534l9.36677778-.01164065c1.1890782-.00166676 2.16318759.97020132 2.16458847 2.15923253.00140097 1.18903124-.97015444 2.1629217-2.15923254 2.16458847"/>
    <path fill="#000" d="M40.69200168 50.71544575l.00265839.00046875-.0026584-.00046875zm.13311283-2.96233137c-.04466074-.00787489-.0902904-.01180907-.13662325-.01175577l-9.3670436.01159388c-.21440056.00029563-.41774955.0855932-.57169108.24045352-.15447323.15476656-.23941711.35824866-.23912139.57264923-.00006393.2148854.08554643.41801538.2403129.57248859.15481342.15420742.35718526.2392296.572962.23890247l9.3665119-.01168764c.44002862-.00053039.81192142-.37324617.8111721-.81358746-.00025814-.3933832-.29845837-.73240148-.67647958-.79905682zm-10.116282 4.27006292c-.70127973-.12365454-1.3480311-.45862113-1.86434691-.97369872-.66528014-.66359386-1.03242182-1.54433518-1.03327136-2.47999813-.0011624-.93544405.36343515-1.81708475 1.02702911-2.48236486.66385967-.66523327 1.5443351-1.03242184 2.47999814-1.03327136l9.36682456-.01190657c1.93293608-.00289628 3.51334942 1.5706353 3.51590212 3.50707413.00202101 1.93634508-1.57094797 3.51356835-3.507121 3.51616792l-.0002658-.00004687-9.36651198.01168753c-.20942799.00007606-.41593442-.01797169-.61823688-.05364307z"/>
    <path fill="#99B2BA" d="M39.77868902 55.04042685l-7.52904046.00922682c-1.1890781.00166678-2.16318747-.9702014-2.16463532-2.15896683-.00166678-1.1890781.9699355-2.16323436 2.1590136-2.16490114l7.52904047-.00922682c1.1890781-.00166677 2.16318759.97020133 2.16458847 2.15923254.00166675 1.1890782-.96988866 2.16296866-2.15896676 2.16463543"/>
    <path fill="#000" d="M39.77868902 55.04042685l.0026584.00046875-.0026584-.00046875zm.1366156-2.9619879c-.04598983-.00810925-.09294878-.01227781-.14039182-.0121461l-7.52930626.00917995c-.21440056.00029562-.41753064.08590596-.57173795.2407193-.15447333.15476655-.23937025.35798287-.2391214.57264924-.00001705.2146196.08559321.41774956.24062557.57226966.15450074.15442645.35856134.23919808.57238344.23907452l7.52935313-.00944576c.21440067-.0002957.41774957-.0855933.57195698-.24040663.1542543-.15507922.23915121-.35829554.23916827-.57291513-.00029572-.21440058-.08585912-.41779634-.24089146-.57231654-.12025056-.1201545-.2704092-.1981629-.4320385-.2266625zM31.6329445 56.3459635c-.70101393-.12360767-1.34776528-.45857436-1.86430003-.97396462-.6650612-.6632812-1.03193698-1.54397563-1.03331832-2.47973235-.00111544-.93570982.36343523-1.81708463 1.02707598-2.48263066.66385977-.66523325 1.5442883-1.03215592 2.47973234-1.03331823l7.52935314-.00944585c.9352251-.00147497 1.81708473.36343525 2.48258378 1.02734188.66528024.66359389 1.03215602 1.54428833 1.03331834 2.47973226.00138134.93575671-.36348211 1.81735053-1.02707598 2.48263066-.66359386.66528014-1.54428832 1.03215602-2.47977922 1.03358412l-.0002658-.00004686-7.52904046.00922682c-.20947487.00034196-.41598131-.01770579-.61828377-.05337717z"/>
    <path fill="#99B2BA" d="M38.61427075 59.36556318l-5.18963294.00646167c-1.1890781.00166677-2.1629217-.97015444-2.16458845-2.15923264-.00144777-1.18876532.97015443-2.16292169 2.15949843-2.16454158l5.18936713-.00650843c1.18903123-.00140098 2.16318749.9702013 2.16458846 2.15923253.00166676 1.1890782-.97020132 2.1631876-2.15923263 2.16458845"/>
    <path fill="#000" d="M38.7510756 56.40374584c-.04598992-.00810927-.09294876-.01227792-.1403918-.01214621l-5.18963293.00646166c-.21440058.00029573-.41801536.08554634-.57222279.24035976-.15447322.15476656-.23915121.35829555-.23912139.57264924.00024884.21466648.08554644.41801537.2405788.57253547.15454752.15416054.35829542.2391513.5726961.23885559l5.18963294-.00646167c.21440056-.00029562.41779644-.0858591.57226965-.24062556.15442634-.15450066.23910433-.35802964.23912139-.57264923-.00029572-.21440058-.0855933-.41774958-.24062566-.57226967-.12051645-.1202015-.270675-.19820978-.4323043-.22670938m-5.9426399 4.26454026c-.70127983-.12365456-1.3480311-.45862113-1.86461271-.97374559-.66528014-.66359386-1.03215602-1.54428832-1.03331832-2.47973235-.00138134-.93575671.36348211-1.81735053 1.02707598-2.48263066.66359386-.66528014 1.54460097-1.03237485 2.48031081-1.03349039l5.18936713-.00650843c1.93672007-.0041477 3.51383424 1.57099485 3.51590212 3.50707413.00138124.9357567-.36348212 1.81735053-1.02734188 2.48258378-.66359386.66528014-1.5442882 1.03215594-2.47999815 1.03327146l-5.1894139.00677425c-.2094281.00007614-.41620032-.01801857-.61797108-.0535962"/>
  </g>
</svg>
