<svg xmlns="http://www.w3.org/2000/svg" xmlns:xlink="http://www.w3.org/1999/xlink" width="194" height="60">
  <defs>
    <path id="a" d="M.25987716.2137728H189.255987v52.7405295H.25987716z"/>
    <path id="c" d="M.2980509.17530661H144.833734V52.9161179H.2980509z"/>
    <path id="e" d="M.29791071.17530661H144.834996V52.9161179H.29791071z"/>
  </defs>
  <g fill="none" fill-rule="evenodd">
    <g transform="translate(3.943508 6.723521)">
      <mask id="b" fill="#fff">
        <use xlink:href="#a"/>
      </mask>
      <path fill="#D5E0E6" d="M181.544699 7.93660038C176.570355 2.95713082 169.955251.2137728 162.92644.2137728c-.465773 0-.927325.01409018-1.386062.0394525-.306763-.02677134-.619155-.0394525-.932953-.0394525H55.2709419c-2.9634988 0-5.74688 1.15539475-7.8421553 3.25201351-1.0019046 1.00462983-1.7828836 2.1698877-2.3316797 3.43518585H17.243595c-.6796628 0-1.3171106.33816432-1.7012678.90036249L.6178881 29.7157914c-.43059385.63124-.47562327 1.4484705-.1196094 2.1262081.35742103.6763287 1.05819142 1.097625 1.82087725 1.097625l42.05607305.001409c.4080791 2.1811599 1.453606 4.1876015 3.0535576 5.7882459 2.0952753 2.0994368 4.8786565 3.2534226 7.8421553 3.2534226h61.4961191c11.250319 0 20.501051.784823 28.984876 4.5905806 2.49069 2.1473434 5.3191 3.7888493 8.409244 4.8808383 2.818561.9947667 5.766581 1.5006041 8.761037 1.5006041 7.035847 0 13.648137-2.743358 18.622481-7.7242366 4.974344-4.9808786 7.711288-11.6032631 7.711288-18.646944 0-7.0436809-2.738352-13.6660654-7.711288-18.64694402" mask="url(#b)"/>
    </g>
    <g transform="translate(43.615943 .011004)">
      <mask id="d" fill="#fff">
        <use xlink:href="#c"/>
      </mask>
      <path fill="#FFC114" d="M137.149708 7.89940231c4.955853 4.98087859 7.684026 11.60185409 7.684026 18.64694399 0 7.0436809-2.728173 13.6660655-7.682624 18.646944-4.955854 4.9794696-11.544966 7.7228276-18.553258 7.7228276-2.983326 0-5.920388-.5044284-8.728471-1.5006041-3.080059-1.091989-5.896554-2.7320859-8.377986-4.8808383-8.4522889-3.8043486-17.6686344-4.5905806-28.877135-4.5905806l-61.2675283.001409c-2.95248309 0-5.72691992-1.1553948-7.81440676-3.2534225-2.0860849-2.0966188-3.2356747-4.8850654-3.23427276-7.8524573V11.2810455C.29665024 8.31506261 1.44624004 5.525207 3.53232494 3.42858824 5.62121371 1.33056046 8.39424861.17516571 11.3467317.17657473L116.290261.1751657c.314034 0 .623862.01409018.930887.0394525.457032-.0239533.916868-.0394525 1.38091-.03804348 7.004086 0 13.593198 2.741949 18.54765 7.72282758" mask="url(#d)"/>
    </g>
    <path fill="#6B8591" d="M127.19943 25.1418488l15.878197-.2875076.093672-7.6891266-83.0875528.1267214.8067024 8.0774663z"/>
    <path fill="#98B1B9" d="M45.8601426 30.590249H1.69789803L16.6508021 8.96102693h29.2107503"/>
    <path fill="#26434C" d="M47.5071513 7.32947954c.3706359.37430993.6000107.89128139.6000107 1.46192748 0 1.14129217-.9174989 2.06647328-2.047589 2.06788578l-27.8956031-.0014125L6.12039815 28.6919831H46.0581743c1.1300901 0 2.047589.9251811 2.047589 2.0678858 0 1.1412922-.9174989 2.0678858-2.047589 2.0678858H2.24760171c-.7580555 0-1.45457143-.4237471-1.80982253-1.1031549-.35385248-.6765829-.30909643-1.4972397.11888324-2.1300354L15.3904938 7.62610251c.381825-.56358364 1.0154027-.90258132 1.6909393-.90258132H46.059573c.565045 0 1.0769423.23164842 1.4475783.60595835"/>
    <g transform="translate(43.615943 .011004)">
      <mask id="f" fill="#fff">
        <use xlink:href="#e"/>
      </mask>
      <path fill="#26434C" d="M6.65850821 35.5513803c1.25333327 1.259662 2.9174346 1.9514899 4.68808329 1.9528989l61.2675284-.001409c11.9150776 0 21.7468742.8707731 31.0052781 5.1231894.197673.0915861.381327.2113527.545354.3550725 2.114124 1.878221 4.52686 3.3069652 7.175123 4.2453712 2.334228.8270936 4.775003 1.2483899 7.257837 1.2483899 5.827859-.001409 11.306636-2.2812001 15.428336-6.423713 4.120298-4.1411038 6.388635-9.6475461 6.388635-15.5048339 0-5.8572877-2.269739-11.36373-6.390037-15.5062429-4.120298-4.14110386-9.599075-6.42230398-15.426934-6.42230398-.436003 0-.864997.01690821-1.289784.04086152-.116361.00704509-.232722.00422705-.347681-.00704509-.220104-.02113527-.445816-.03381643-.671528-.03381643H11.3465915c-1.77205063 0-3.43475002.69323685-4.68808329 1.95148991-1.25193132 1.25825306-1.9416852 2.93216642-1.9416852 4.71175617l-.00140194 19.5585786c.00140194 1.7809988.68975388 3.4520941 1.94308714 4.7117562M137.149568 7.89940231c4.955853 4.98087859 7.685428 11.60185409 7.685428 18.64694399 0 7.0436809-2.729575 13.6660655-7.684027 18.646944-4.955853 4.9794696-11.544965 7.7228276-18.553257 7.7228276-2.983326 0-5.920388-.5044284-8.728471-1.5006041-3.08006-1.091989-5.896555-2.7320859-8.376584-4.8808383-8.4536911-3.8043486-17.6700366-4.5905806-28.8785371-4.5905806l-61.2675284.001409c-2.95248308 0-5.72691992-1.1553948-7.81300482-3.2534225C1.44609985 36.5954626.29651005 33.807016.29791199 30.8396241V11.2810455C.29651005 8.31506261 1.44609985 5.525207 3.53358668 3.42858824 5.62107352 1.33056046 8.39410842.17516571 11.3465915.17657473L116.29012.1751657c.314035 0 .625265.01409018.930888.0394525.457032-.0239533.91827-.0394525 1.38091-.03804348 7.004086 0 13.593198 2.741949 18.54765 7.72282758" mask="url(#f)"/>
    </g>
    <path fill="#FFF" d="M154.399347 48.4902948V2.24850973"/>
    <path fill="#26434C" d="M155.348056 1.34852985c.338733.36549653.548364.87029551.548364 1.42750531V48.7086047c0 1.1144196-.838524 2.0191959-1.871341 2.0191959-1.034095 0-1.871341-.9047763-1.871341-2.0191959V2.77603516c0-1.1144196.837246-2.01919592 1.871341-2.01919592.516408 0 .984244.22619408 1.322977.59169061M99.6935109 24.85248c.9312101.9016887 2.1695051 1.39865 3.4859941 1.39865h17.853636c2.71828 0 4.930436-2.142027 4.930436-4.7741322l.001421-2.6568844c0-1.2747539-.514653-2.4737934-1.445863-3.3754822-.929788-.9003121-2.168083-1.39865-3.485994-1.39865h-17.853636c-1.316489 0-2.554784.4983379-3.4859941 1.39865-.929788.9016888-1.4444413 2.1007283-1.4444413 3.3754822v2.6568844c0 1.2761305.5146533 2.4737934 1.4444413 3.3754822m27.9945811-12.4763438c1.777118 1.7221567 2.758087 4.0101059 2.758087 6.4439772v2.6568844c0 5.0246778-4.222432 9.1132512-9.413038 9.1132512h-17.853636c-2.512134 0-4.8778327-.948494-6.6549505-2.669274-1.7771178-1.7207801-2.7566651-4.0101059-2.7566651-6.4439772v-2.6568844c0-2.4338713.9795473-4.7218205 2.7566651-6.4439772 1.7771178-1.7207801 4.1413955-2.66927403 6.6549505-2.66927403h17.853636c2.514977 0 4.877833.94849393 6.654951 2.66927403"/>
    <path fill="#98B1B9" d="M99.7025034 24.7477327c.9305356.8816099 2.1679336 1.3675048 3.4834686 1.3675048h17.840703c2.71631 0 4.926864-2.0943282 4.926864-4.6678215l.001421-2.5977208c0-1.2463676-.514281-2.4187069-1.444816-3.3003167-.929115-.880264-2.166513-1.3675049-3.483469-1.3675049h-17.840703c-1.315535 0-2.552933.4872409-3.4834686 1.3675049-.9291144.8816098-1.4433949 2.0539491-1.4433949 3.3003167v2.5977208c0 1.2477135.5142805 2.4187068 1.4433949 3.3003167"/>
    <path fill="#26434C" d="M97.1874894 15.5569994c.4013291.3881987.6505756.9248663.6505756 1.5173801 0 1.1850276-.9941696 2.1466707-2.2192794 2.1466707l-32.5935537.0013621.0014082 3.3439571h33.013189c1.226518 0 2.2192794.9616431 2.2192794 2.1480327 0 1.1850276-.9927614 2.1466707-2.2192794 2.1466707H60.8059526c-1.2251098-.0013621-2.2192794-.9630052-2.2192794-2.1480328v-7.6372984c0-.5707202.2337566-1.1155604.6505755-1.5187422.4154108-.4031818.9800879-.6292905 1.5687039-.6292905h34.812833c.6125549 0 1.1673748.2410918 1.5687038.6292905m47.5651506 0c.410665.3881987.664269.9248663.664269 1.5173801v7.6400226c0 1.1850276-1.015856 2.1466707-2.270906 2.1466707h-15.670114c-1.253609-.0013621-2.270905-.9616431-2.269464-2.1480328-.001441-1.1850275 1.015855-2.1466706 2.270905-2.1466706h13.397768v-5.4919899c0-1.1850276 1.017296-2.1466706 2.272346-2.1466706.625364 0 1.194531.2410918 1.605196.6292905"/>
    <path fill="#26434C" d="M145.501224 26.2317823c.410636-.3881987.664221-.9248664.664221-1.5173802v-7.6400226c0-1.1850276-1.015783-2.1466706-2.270744-2.1466706h-15.668997c-1.25352.0013621-2.270744.961643-2.270744 2.1480327 0 1.1850276 1.017224 2.1466707 2.272184 2.1466707h13.396813v5.4919898c0 1.1850276 1.017225 2.1466707 2.272185 2.1466707.625319 0 1.194446-.2410918 1.605082-.6292905M30.9818145 8.85616821c.7110715.69030981.8781305 1.78537959.3398294 2.66282159L19.3562241 31.0140044c-.6353952 1.0368508-2.0175583 1.3778473-3.0855934.759618-1.0666072-.6168431-1.4178594-1.9586502-.7824642-2.995501L27.4535863 9.28310681c.6382509-1.03685089 2.0189861-1.3778473 3.0855934-.75961803.1656311.09425917.3127001.20653848.4426348.33267943m12.7251208.00096854c.7110715.69029298.8781304 1.78533605.3398293 2.66275665l-11.9654198 19.494539c-.6353952 1.0368255-2.0175582 1.3778136-3.0855933.7582133-1.0666073-.616828-1.4178594-1.9586023-.7824642-2.9954279L40.1787071 9.28267881c.6382509-1.03682559 2.0189861-1.37781369 3.0855933-.75821337.1656311.09425687.3127001.20653344.4426349.33267131M108.08175 10.3428625c.406091.3923378.65687.9347277.65687 1.5335592v16.5442678c0 1.1976629-1.00454 2.1695595-2.24561 2.1695595-1.24107 0-2.245609-.97052-2.245609-2.1695595V11.8777983c0-1.1990396 1.005964-2.17093613 2.245609-2.17093613.619823 0 1.18265.24366246 1.58874.63600033m9.72955-.0014185c.407516.3936886.658294.9360427.658294 1.5348347V28.419456c0 1.1989605-1.004539 2.170793-2.245609 2.170793-1.24107-.0013765-2.24561-.9718325-2.24561-2.1694165V11.8762787c0-1.1989605 1.005965-2.16941653 2.24561-2.16941653.619822 0 1.181225.24226986 1.587315.63458183M154.399347.75683924V49.4069253s29.47247 5.9135175 32.727081-20.1865603C190.383867 3.12028721 154.399347.75683924 154.399347.75683924M44.3644794 30.590249l.5058321-20.6724353 1.7397774-.95678677-.0014248 21.62922207z"/>
  </g>
</svg>
