<svg xmlns="http://www.w3.org/2000/svg" width="18" height="17">
  <path d="M17.0918296 2.63139205c0 1.45333862-1.1817571 2.63139204-2.6398472 2.63139204-1.4577253 0-2.6394824-1.17805342-2.6394824-2.63139204C11.8125 1.17805342 12.9942571 0 14.4519824 0c1.4580901 0 2.6398472 1.17805342 2.6398472 2.63139205M8.97485496 16.8579545c-4.21788724 0-7.89084194-2.7861215-8.93269222-6.7757096-.18411553-.70541489.2519011-1.42325092.97371164-1.60335685.72269316-.18010594 1.4565074.24600677 1.64062292.95142169.73646211 2.82096966 3.3347329 4.79109396 6.31835766 4.79109396 2.98362474 0 5.58189554-1.9702968 6.31835764-4.79109396.1842921-.70558744.9188124-1.13152763 1.6406229-.95159421.7219871.18010594 1.1578272.89794196.9737117 1.60335687-1.0416738 3.9895881-4.7146285 6.7758821-8.93269224 6.7758821M6.13872036 3.75639205H2.44630225c-.72956082 0-1.32130225-.58898144-1.32130225-1.31569603C1.125 1.7141536 1.71674143 1.125 2.44630225 1.125h3.69241811c.72990666 0 1.32147517.5891536 1.32147517 1.31569602 0 .72671459-.59156851 1.31569603-1.32147517 1.31569603"/>
</svg>
